EESchema Schematic File Version 4
EELAYER 30 0
EELAYER END
$Descr A4 11693 8268
encoding utf-8
Sheet 1 1
Title ""
Date ""
Rev ""
Comp ""
Comment1 ""
Comment2 ""
Comment3 ""
Comment4 ""
$EndDescr
$Comp
L Connector:Conn_Coaxial ANT-S2
U 1 1 5EBAB6BF
P 7815 3075
F 0 "ANT-S2" H 7915 3050 50  0000 L CNN
F 1 "RF 24" H 7915 2959 50  0000 L CNN
F 2 "Connector_Coaxial:SMA_Amphenol_132289_EdgeMount" H 7815 3075 50  0001 C CNN
F 3 " ~" H 7815 3075 50  0001 C CNN
F 4 "Amphenol RF" H 7815 3075 50  0001 C CNN "Mnf."
F 5 "132289 " H 7815 3075 50  0001 C CNN "Part Number"
	1    7815 3075
	1    0    0    -1  
$EndComp
$Comp
L lsf-kicad:ADL5330 U1
U 1 1 5EC6B326
P 5340 3075
F 0 "U1" H 5290 2900 50  0000 L CNN
F 1 "ADL5330" H 5165 3300 50  0000 L CNN
F 2 "Package_CSP:LFCSP-24-1EP_4x4mm_P0.5mm_EP2.3x2.3mm_ThermalVias" H 5490 3525 50  0001 C CNN
F 3 "https://www.analog.com/media/en/technical-documentation/data-sheets/ADL5330.pdf" H 5340 3075 50  0001 C CNN
F 4 "Analog Devices" H 5340 3075 50  0001 C CNN "Mnf."
F 5 "ADL5330ACPZ-REEL7" H 5340 3075 50  0001 C CNN "Part Number"
	1    5340 3075
	-1   0    0    -1  
$EndComp
$Comp
L lsf-kicad:LTCC-Balun-06Pins T2
U 1 1 5ECAB1B4
P 7015 3075
F 0 "T2" H 6640 3550 50  0000 C CNN
F 1 "1720BL15B0050" H 6590 3475 50  0000 C CNN
F 2 "RF_Converter:Anaren_0805_2012Metric-6" H 7015 3075 50  0001 C CNN
F 3 "~" H 7015 3075 50  0001 C CNN
F 4 "1720BL15B0050E" H 7015 3075 50  0001 C CNN "Part Number"
F 5 "Johanson Technology" H 7015 3075 50  0001 C CNN "Mnf."
	1    7015 3075
	-1   0    0    1   
$EndComp
$Comp
L Device:C_Small C?
U 1 1 5EE4C089
P 4590 5775
AR Path="/5E50DEC8/5E57854A/5EE4C089" Ref="C?"  Part="1" 
AR Path="/5E50DEC8/5EBAAD2D/5EE4C089" Ref="C?"  Part="1" 
AR Path="/5EE4C089" Ref="C7"  Part="1" 
F 0 "C7" V 4361 5775 50  0000 C CNN
F 1 "1n" V 4452 5775 50  0000 C CNN
F 2 "Capacitor_SMD:C_0402_1005Metric" H 4590 5775 50  0001 C CNN
F 3 "~" H 4590 5775 50  0001 C CNN
F 4 "Capacitor, 0402, 10%, 50V, X7R" H 4590 5775 50  0001 C CNN "Description"
F 5 "KEMET " H 4590 5775 50  0001 C CNN "Mnf."
F 6 "C0402C102K8RACAUTO" H 4590 5775 50  0001 C CNN "Part Number"
	1    4590 5775
	0    -1   1    0   
$EndComp
$Comp
L Device:C_Small C?
U 1 1 5EE4C5BF
P 4590 6025
AR Path="/5E50DEC8/5E57854A/5EE4C5BF" Ref="C?"  Part="1" 
AR Path="/5E50DEC8/5EBAAD2D/5EE4C5BF" Ref="C?"  Part="1" 
AR Path="/5EE4C5BF" Ref="C8"  Part="1" 
F 0 "C8" V 4361 6025 50  0000 C CNN
F 1 "1n" V 4452 6025 50  0000 C CNN
F 2 "Capacitor_SMD:C_0402_1005Metric" H 4590 6025 50  0001 C CNN
F 3 "~" H 4590 6025 50  0001 C CNN
F 4 "Capacitor, 0402, 10%, 50V, X7R" H 4590 6025 50  0001 C CNN "Description"
F 5 "KEMET " H 4590 6025 50  0001 C CNN "Mnf."
F 6 "C0402C102K8RACAUTO" H 4590 6025 50  0001 C CNN "Part Number"
	1    4590 6025
	0    1    -1   0   
$EndComp
$Comp
L Device:R_Small R3
U 1 1 5EE59078
P 4390 5900
F 0 "R3" H 4331 5854 50  0000 R CNN
F 1 "52.3" H 4331 5945 50  0000 R CNN
F 2 "Resistor_SMD:R_0402_1005Metric" H 4390 5900 50  0001 C CNN
F 3 "~" H 4390 5900 50  0001 C CNN
F 4 "Resistor, 0402, 0.1%, 1/16W" H 4390 5900 50  0001 C CNN "Description"
F 5 "Panasonic" H 4390 5900 50  0001 C CNN "Mnf."
F 6 "ERA-2AEB52R3X" H 4390 5900 50  0001 C CNN "Part Number"
	1    4390 5900
	1    0    0    1   
$EndComp
Wire Wire Line
	4890 5850 4765 5850
Wire Wire Line
	4765 5850 4765 5775
Wire Wire Line
	4765 5775 4690 5775
Wire Wire Line
	4690 6025 4765 6025
Wire Wire Line
	4765 6025 4765 5950
Wire Wire Line
	4765 5950 4890 5950
Wire Wire Line
	4490 6025 4390 6025
Wire Wire Line
	4390 6025 4390 6000
Wire Wire Line
	4390 5800 4390 5775
Wire Wire Line
	4390 5775 4490 5775
$Comp
L Device:R_Small R2
U 1 1 5EE7D199
P 3990 5900
F 0 "R2" H 3931 5854 50  0000 R CNN
F 1 "R_Small" H 3931 5945 50  0000 R CNN
F 2 "Resistor_SMD:R_0402_1005Metric" H 3990 5900 50  0001 C CNN
F 3 "~" H 3990 5900 50  0001 C CNN
	1    3990 5900
	1    0    0    1   
$EndComp
Wire Wire Line
	3990 5800 3990 5775
Wire Wire Line
	3990 5775 4390 5775
Connection ~ 4390 5775
Wire Wire Line
	3990 6000 3990 6025
Wire Wire Line
	3990 6025 4390 6025
Connection ~ 4390 6025
$Comp
L Device:R_Small R1
U 1 1 5EE85A9D
P 3665 4125
F 0 "R1" H 3606 4079 50  0000 R CNN
F 1 "240" H 3606 4170 50  0000 R CNN
F 2 "Resistor_SMD:R_0402_1005Metric" H 3665 4125 50  0001 C CNN
F 3 "~" H 3665 4125 50  0001 C CNN
F 4 "Resistor, 0402, 0.1%, 1/16W" H 3665 4125 50  0001 C CNN "Description"
F 5 "Panasonic" H 3665 4125 50  0001 C CNN "Mnf."
F 6 "ERA-2AEB121X" H 3665 4125 50  0001 C CNN "Part Number"
	1    3665 4125
	-1   0    0    1   
$EndComp
Connection ~ 3990 5775
Connection ~ 3990 6025
Wire Wire Line
	3665 4025 3665 2975
Wire Wire Line
	3665 2975 3290 2975
$Comp
L Device:C_Small C?
U 1 1 5EEE7F70
P 6315 3175
AR Path="/5E50DEC8/5E57854A/5EEE7F70" Ref="C?"  Part="1" 
AR Path="/5E50DEC8/5EBAAD2D/5EEE7F70" Ref="C?"  Part="1" 
AR Path="/5EEE7F70" Ref="C25"  Part="1" 
F 0 "C25" V 6086 3175 50  0000 C CNN
F 1 "100p" V 6177 3175 50  0000 C CNN
F 2 "Capacitor_SMD:C_0402_1005Metric" H 6315 3175 50  0001 C CNN
F 3 "~" H 6315 3175 50  0001 C CNN
F 4 "Capacitor, 0402, 5%, 50V, NPO/COG" V 6315 3175 50  0001 C CNN "Description"
F 5 "KEMET" H 6315 3175 50  0001 C CNN "Mnf."
F 6 "CBR04C101J3GAC" H 6315 3175 50  0001 C CNN "Part Number"
	1    6315 3175
	0    1    -1   0   
$EndComp
$Comp
L Device:C_Small C?
U 1 1 5EEE84C1
P 6315 2975
AR Path="/5E50DEC8/5E57854A/5EEE84C1" Ref="C?"  Part="1" 
AR Path="/5E50DEC8/5EBAAD2D/5EEE84C1" Ref="C?"  Part="1" 
AR Path="/5EEE84C1" Ref="C24"  Part="1" 
F 0 "C24" V 6086 2975 50  0000 C CNN
F 1 "100p" V 6177 2975 50  0000 C CNN
F 2 "Capacitor_SMD:C_0402_1005Metric" H 6315 2975 50  0001 C CNN
F 3 "~" H 6315 2975 50  0001 C CNN
F 4 "Capacitor, 0402, 5%, 50V, NPO/COG" V 6315 2975 50  0001 C CNN "Description"
F 5 "KEMET" H 6315 2975 50  0001 C CNN "Mnf."
F 6 "CBR04C101J3GAC" H 6315 2975 50  0001 C CNN "Part Number"
	1    6315 2975
	0    -1   1    0   
$EndComp
$Comp
L power:GNDA #PWR026
U 1 1 5EEF88A3
P 7015 3500
F 0 "#PWR026" H 7015 3250 50  0001 C CNN
F 1 "GNDA" H 7020 3327 50  0000 C CNN
F 2 "" H 7015 3500 50  0001 C CNN
F 3 "" H 7015 3500 50  0001 C CNN
	1    7015 3500
	1    0    0    -1  
$EndComp
$Comp
L power:GNDA #PWR025
U 1 1 5EEF8B38
P 7015 2650
F 0 "#PWR025" H 7015 2400 50  0001 C CNN
F 1 "GNDA" H 7020 2477 50  0000 C CNN
F 2 "" H 7015 2650 50  0001 C CNN
F 3 "" H 7015 2650 50  0001 C CNN
	1    7015 2650
	-1   0    0    1   
$EndComp
$Comp
L Device:C_Small C?
U 1 1 5F10CC6F
P 3815 3175
AR Path="/5E50DEC8/5E57854A/5F10CC6F" Ref="C?"  Part="1" 
AR Path="/5E50DEC8/5EBAAD2D/5F10CC6F" Ref="C?"  Part="1" 
AR Path="/5F10CC6F" Ref="C3"  Part="1" 
F 0 "C3" V 3586 3175 50  0000 C CNN
F 1 "100p" V 3677 3175 50  0000 C CNN
F 2 "Capacitor_SMD:C_0402_1005Metric" H 3815 3175 50  0001 C CNN
F 3 "~" H 3815 3175 50  0001 C CNN
F 4 "Capacitor, 0402, 5%, 50V, NPO/COG" V 3815 3175 50  0001 C CNN "Description"
F 5 "KEMET" H 3815 3175 50  0001 C CNN "Mnf."
F 6 "CBR04C101J3GAC" H 3815 3175 50  0001 C CNN "Part Number"
	1    3815 3175
	0    1    -1   0   
$EndComp
$Comp
L Device:C_Small C?
U 1 1 5F10D452
P 3815 2975
AR Path="/5E50DEC8/5E57854A/5F10D452" Ref="C?"  Part="1" 
AR Path="/5E50DEC8/5EBAAD2D/5F10D452" Ref="C?"  Part="1" 
AR Path="/5F10D452" Ref="C2"  Part="1" 
F 0 "C2" V 3586 2975 50  0000 C CNN
F 1 "100p" V 3677 2975 50  0000 C CNN
F 2 "Capacitor_SMD:C_0402_1005Metric" H 3815 2975 50  0001 C CNN
F 3 "~" H 3815 2975 50  0001 C CNN
F 4 "Capacitor, 0402, 5%, 50V, NPO/COG" V 3815 2975 50  0001 C CNN "Description"
F 5 "KEMET" H 3815 2975 50  0001 C CNN "Mnf."
F 6 "CBR04C101J3GAC" H 3815 2975 50  0001 C CNN "Part Number"
	1    3815 2975
	0    -1   1    0   
$EndComp
$Comp
L Device:L_Small L?
U 1 1 5F10F1F9
P 4140 2575
AR Path="/5E50DEC8/5E57854A/5F10F1F9" Ref="L?"  Part="1" 
AR Path="/5E50DEC8/5EBAAD2D/5F10F1F9" Ref="L?"  Part="1" 
AR Path="/5F10F1F9" Ref="L1"  Part="1" 
F 0 "L1" H 4188 2621 50  0000 L CNN
F 1 "120n" H 4188 2530 50  0000 L CNN
F 2 "Inductor_SMD:L_0402_1005Metric" H 4140 2575 50  0001 C CNN
F 3 "~" H 4140 2575 50  0001 C CNN
F 4 "Inductor, 0603, 5%, 130mA, 3Ohm" H 4140 2575 50  0001 C CNN "Description"
F 5 "Murata Electronics" H 4140 2575 50  0001 C CNN "Mnf."
F 6 "LQG15WZR12J02D" H 4140 2575 50  0001 C CNN "Part Number"
	1    4140 2575
	-1   0    0    1   
$EndComp
$Comp
L Device:L_Small L?
U 1 1 5F1105D8
P 4340 2575
AR Path="/5E50DEC8/5E57854A/5F1105D8" Ref="L?"  Part="1" 
AR Path="/5E50DEC8/5EBAAD2D/5F1105D8" Ref="L?"  Part="1" 
AR Path="/5F1105D8" Ref="L2"  Part="1" 
F 0 "L2" H 4388 2621 50  0000 L CNN
F 1 "120n" H 4388 2530 50  0000 L CNN
F 2 "Inductor_SMD:L_0402_1005Metric" H 4340 2575 50  0001 C CNN
F 3 "~" H 4340 2575 50  0001 C CNN
F 4 "Inductor, 0603, 5%, 130mA, 3Ohm" H 4340 2575 50  0001 C CNN "Description"
F 5 "Murata Electronics" H 4340 2575 50  0001 C CNN "Mnf."
F 6 "LQG15WZR12J02D" H 4340 2575 50  0001 C CNN "Part Number"
	1    4340 2575
	1    0    0    -1  
$EndComp
Wire Wire Line
	4640 2975 4140 2975
Wire Wire Line
	3915 3175 4340 3175
Wire Wire Line
	3665 2975 3715 2975
Connection ~ 3665 2975
Wire Wire Line
	4140 2675 4140 2975
Connection ~ 4140 2975
Wire Wire Line
	4140 2975 3915 2975
Wire Wire Line
	4340 2675 4340 3175
Connection ~ 4340 3175
Wire Wire Line
	4340 3175 4640 3175
$Comp
L Device:C_Small C?
U 1 1 5F16AFC4
P 4940 4750
AR Path="/5E50DEC8/5E57854A/5F16AFC4" Ref="C?"  Part="1" 
AR Path="/5E50DEC8/5EBAAD2D/5F16AFC4" Ref="C?"  Part="1" 
AR Path="/5F16AFC4" Ref="C12"  Part="1" 
F 0 "C12" H 4848 4704 50  0000 R CNN
F 1 "100n" H 4848 4795 50  0000 R CNN
F 2 "Capacitor_SMD:C_0402_1005Metric" H 4940 4750 50  0001 C CNN
F 3 "~" H 4940 4750 50  0001 C CNN
F 4 "Capacitor, 0603, 10%, 50V, X7R" H 4940 4750 50  0001 C CNN "Description"
F 5 "KEMET" H 4940 4750 50  0001 C CNN "Mnf."
F 6 "C0402C104K4RACTU" H 4940 4750 50  0001 C CNN "Part Number"
	1    4940 4750
	0    -1   1    0   
$EndComp
$Comp
L Device:C_Small C?
U 1 1 5F1E4F4D
P 7515 3075
AR Path="/5E50DEC8/5E57854A/5F1E4F4D" Ref="C?"  Part="1" 
AR Path="/5E50DEC8/5EBAAD2D/5F1E4F4D" Ref="C?"  Part="1" 
AR Path="/5F1E4F4D" Ref="C26"  Part="1" 
F 0 "C26" H 7423 3029 50  0000 R CNN
F 1 "100p" H 7423 3120 50  0000 R CNN
F 2 "Capacitor_SMD:C_0402_1005Metric" H 7515 3075 50  0001 C CNN
F 3 "~" H 7515 3075 50  0001 C CNN
F 4 "Capacitor, 0402, 5%, 50V, NPO/COG " H 7515 3075 50  0001 C CNN "Description"
F 5 "KEMET" H 7515 3075 50  0001 C CNN "Mnf."
F 6 "CBR04C101J3GAC" H 7515 3075 50  0001 C CNN "Part Number"
	1    7515 3075
	0    -1   1    0   
$EndComp
Wire Wire Line
	6040 2975 6215 2975
Wire Wire Line
	6040 3175 6215 3175
Wire Wire Line
	6415 2975 6615 2975
Wire Wire Line
	6415 3175 6615 3175
$Comp
L Device:C_Small C?
U 1 1 5F16B61B
P 4940 5150
AR Path="/5E50DEC8/5E57854A/5F16B61B" Ref="C?"  Part="1" 
AR Path="/5E50DEC8/5EBAAD2D/5F16B61B" Ref="C?"  Part="1" 
AR Path="/5F16B61B" Ref="C13"  Part="1" 
F 0 "C13" H 4848 5104 50  0000 R CNN
F 1 "100p" H 4848 5195 50  0000 R CNN
F 2 "Capacitor_SMD:C_0402_1005Metric" H 4940 5150 50  0001 C CNN
F 3 "~" H 4940 5150 50  0001 C CNN
F 4 "Capacitor, 0402, 5%, 50V, NPO/COG" H 4940 5150 50  0001 C CNN "Description"
F 5 "KEMET" H 4940 5150 50  0001 C CNN "Mnf."
F 6 "CBR04C101J3GAC" H 4940 5150 50  0001 C CNN "Part Number"
	1    4940 5150
	0    -1   1    0   
$EndComp
Wire Wire Line
	3290 3175 3540 3175
Connection ~ 3540 3175
Wire Wire Line
	3540 3175 3715 3175
$Comp
L power:GNDA #PWR09
U 1 1 5EF3D8FE
P 4765 5060
F 0 "#PWR09" H 4765 4810 50  0001 C CNN
F 1 "GNDA" H 4770 4887 50  0000 C CNN
F 2 "" H 4765 5060 50  0001 C CNN
F 3 "" H 4765 5060 50  0001 C CNN
	1    4765 5060
	1    0    0    -1  
$EndComp
Wire Wire Line
	4840 2375 4840 2275
Wire Wire Line
	4840 2275 4940 2275
Wire Wire Line
	5240 2375 5240 2275
Wire Wire Line
	5140 2375 5140 2275
Connection ~ 5140 2275
Wire Wire Line
	5140 2275 5240 2275
Wire Wire Line
	5040 2375 5040 2275
Connection ~ 5040 2275
Wire Wire Line
	4940 2375 4940 2275
Connection ~ 4940 2275
Wire Wire Line
	4940 2275 5040 2275
$Comp
L Device:C_Small C?
U 1 1 5EFB8241
P 4690 1075
AR Path="/5E50DEC8/5E57854A/5EFB8241" Ref="C?"  Part="1" 
AR Path="/5E50DEC8/5EBAAD2D/5EFB8241" Ref="C?"  Part="1" 
AR Path="/5EFB8241" Ref="C9"  Part="1" 
F 0 "C9" H 4598 1029 50  0000 R CNN
F 1 "100n" H 4598 1120 50  0000 R CNN
F 2 "Capacitor_SMD:C_0402_1005Metric" H 4690 1075 50  0001 C CNN
F 3 "~" H 4690 1075 50  0001 C CNN
F 4 "Capacitor, 0603, 10%, 50V, X7R" H 4690 1075 50  0001 C CNN "Description"
F 5 "KEMET" H 4690 1075 50  0001 C CNN "Mnf."
F 6 "C0402C104K4RACTU" H 4690 1075 50  0001 C CNN "Part Number"
	1    4690 1075
	0    -1   1    0   
$EndComp
$Comp
L Device:C_Small C?
U 1 1 5EFB871E
P 4690 1725
AR Path="/5E50DEC8/5E57854A/5EFB871E" Ref="C?"  Part="1" 
AR Path="/5E50DEC8/5EBAAD2D/5EFB871E" Ref="C?"  Part="1" 
AR Path="/5EFB871E" Ref="C10"  Part="1" 
F 0 "C10" H 4598 1679 50  0000 R CNN
F 1 "100p" H 4598 1770 50  0000 R CNN
F 2 "Capacitor_SMD:C_0402_1005Metric" H 4690 1725 50  0001 C CNN
F 3 "~" H 4690 1725 50  0001 C CNN
F 4 "Capacitor, 0402, 5%, 50V, NPO/COG" H 4690 1725 50  0001 C CNN "Description"
F 5 "KEMET" H 4690 1725 50  0001 C CNN "Mnf."
F 6 "CBR04C101J3GAC" H 4690 1725 50  0001 C CNN "Part Number"
	1    4690 1725
	0    -1   1    0   
$EndComp
Wire Wire Line
	4840 925  4840 1075
Wire Wire Line
	4790 1725 4840 1725
Connection ~ 4840 1725
Wire Wire Line
	4790 1075 4840 1075
Connection ~ 4840 1075
Wire Wire Line
	4840 1075 4840 1200
Wire Wire Line
	4590 1725 4515 1725
Wire Wire Line
	4515 1725 4515 1075
Wire Wire Line
	4515 1075 4590 1075
$Comp
L power:GNDA #PWR07
U 1 1 5F035D8A
P 4515 1770
F 0 "#PWR07" H 4515 1520 50  0001 C CNN
F 1 "GNDA" H 4520 1597 50  0000 C CNN
F 2 "" H 4515 1770 50  0001 C CNN
F 3 "" H 4515 1770 50  0001 C CNN
	1    4515 1770
	1    0    0    -1  
$EndComp
Wire Wire Line
	4515 1770 4515 1725
Connection ~ 4515 1725
Wire Wire Line
	4140 2100 4140 2475
Wire Wire Line
	4340 2100 4340 2475
Wire Wire Line
	5340 3775 5340 3925
Wire Wire Line
	5840 3925 5840 3775
Wire Wire Line
	5740 3775 5740 3925
Wire Wire Line
	5340 3925 5440 3925
Connection ~ 5740 3925
Wire Wire Line
	5740 3925 5840 3925
Wire Wire Line
	5640 3775 5640 3925
Connection ~ 5640 3925
Wire Wire Line
	5640 3925 5740 3925
Wire Wire Line
	5540 3775 5540 3925
Connection ~ 5540 3925
Wire Wire Line
	5440 3775 5440 3925
Connection ~ 5440 3925
Wire Wire Line
	5440 3925 5540 3925
$Comp
L power:GNDA #PWR015
U 1 1 5F0F0537
P 5440 4025
F 0 "#PWR015" H 5440 3775 50  0001 C CNN
F 1 "GNDA" H 5445 3852 50  0000 C CNN
F 2 "" H 5440 4025 50  0001 C CNN
F 3 "" H 5440 4025 50  0001 C CNN
	1    5440 4025
	1    0    0    -1  
$EndComp
Wire Wire Line
	5240 3775 5240 3925
Wire Wire Line
	5240 3925 5340 3925
Connection ~ 5340 3925
Wire Wire Line
	5290 4645 5290 4750
Wire Wire Line
	5040 5150 5290 5150
Wire Wire Line
	5040 4750 5290 4750
Connection ~ 5290 4750
Wire Wire Line
	5290 4750 5290 4850
Wire Wire Line
	4840 4750 4830 4750
Wire Wire Line
	4830 4750 4830 4945
Wire Wire Line
	4830 5150 4840 5150
Wire Wire Line
	5040 2275 5140 2275
$Comp
L Device:C_Small C?
U 1 1 5F3D9544
P 5165 1075
AR Path="/5E50DEC8/5E57854A/5F3D9544" Ref="C?"  Part="1" 
AR Path="/5E50DEC8/5EBAAD2D/5F3D9544" Ref="C?"  Part="1" 
AR Path="/5F3D9544" Ref="C15"  Part="1" 
F 0 "C15" H 5073 1029 50  0000 R CNN
F 1 "100n" H 5073 1120 50  0000 R CNN
F 2 "Capacitor_SMD:C_0402_1005Metric" H 5165 1075 50  0001 C CNN
F 3 "~" H 5165 1075 50  0001 C CNN
F 4 "Capacitor, 0603, 10%, 50V, X7R" H 5165 1075 50  0001 C CNN "Description"
F 5 "KEMET" H 5165 1075 50  0001 C CNN "Mnf."
F 6 "C0402C104K4RACTU" H 5165 1075 50  0001 C CNN "Part Number"
	1    5165 1075
	0    -1   1    0   
$EndComp
$Comp
L Device:C_Small C?
U 1 1 5F3D954A
P 5190 1725
AR Path="/5E50DEC8/5E57854A/5F3D954A" Ref="C?"  Part="1" 
AR Path="/5E50DEC8/5EBAAD2D/5F3D954A" Ref="C?"  Part="1" 
AR Path="/5F3D954A" Ref="C16"  Part="1" 
F 0 "C16" H 5098 1679 50  0000 R CNN
F 1 "100p" H 5098 1770 50  0000 R CNN
F 2 "Capacitor_SMD:C_0402_1005Metric" H 5190 1725 50  0001 C CNN
F 3 "~" H 5190 1725 50  0001 C CNN
F 4 "Capacitor, 0402, 5%, 50V, NPO/COG" H 5190 1725 50  0001 C CNN "Description"
F 5 "KEMET" H 5190 1725 50  0001 C CNN "Mnf."
F 6 "CBR04C101J3GAC" H 5190 1725 50  0001 C CNN "Part Number"
	1    5190 1725
	0    -1   1    0   
$EndComp
Wire Wire Line
	5340 925  5340 1075
Wire Wire Line
	5290 1725 5340 1725
Connection ~ 5340 1725
Wire Wire Line
	5265 1075 5340 1075
Connection ~ 5340 1075
Wire Wire Line
	5340 1075 5340 1200
Wire Wire Line
	5090 1725 5015 1725
Wire Wire Line
	5015 1075 5065 1075
$Comp
L power:GNDA #PWR011
U 1 1 5F3D9559
P 5015 1760
F 0 "#PWR011" H 5015 1510 50  0001 C CNN
F 1 "GNDA" H 5020 1587 50  0000 C CNN
F 2 "" H 5015 1760 50  0001 C CNN
F 3 "" H 5015 1760 50  0001 C CNN
	1    5015 1760
	1    0    0    -1  
$EndComp
Wire Wire Line
	5015 1760 5015 1725
Connection ~ 5015 1725
$Comp
L power:GNDA #PWR028
U 1 1 5F3FBC67
P 7815 3675
F 0 "#PWR028" H 7815 3425 50  0001 C CNN
F 1 "GNDA" H 7820 3502 50  0000 C CNN
F 2 "" H 7815 3675 50  0001 C CNN
F 3 "" H 7815 3675 50  0001 C CNN
	1    7815 3675
	1    0    0    -1  
$EndComp
Wire Wire Line
	7815 3675 7815 3275
$Comp
L Device:C_Small C?
U 1 1 5F43841D
P 5615 1075
AR Path="/5E50DEC8/5E57854A/5F43841D" Ref="C?"  Part="1" 
AR Path="/5E50DEC8/5EBAAD2D/5F43841D" Ref="C?"  Part="1" 
AR Path="/5F43841D" Ref="C18"  Part="1" 
F 0 "C18" H 5523 1029 50  0000 R CNN
F 1 "100n" H 5523 1120 50  0000 R CNN
F 2 "Capacitor_SMD:C_0402_1005Metric" H 5615 1075 50  0001 C CNN
F 3 "~" H 5615 1075 50  0001 C CNN
F 4 "Capacitor, 0603, 10%, 50V, X7R" H 5615 1075 50  0001 C CNN "Description"
F 5 "KEMET" H 5615 1075 50  0001 C CNN "Mnf."
F 6 "C0402C104K4RACTU" H 5615 1075 50  0001 C CNN "Part Number"
	1    5615 1075
	0    -1   1    0   
$EndComp
$Comp
L Device:C_Small C?
U 1 1 5F438423
P 5615 1725
AR Path="/5E50DEC8/5E57854A/5F438423" Ref="C?"  Part="1" 
AR Path="/5E50DEC8/5EBAAD2D/5F438423" Ref="C?"  Part="1" 
AR Path="/5F438423" Ref="C19"  Part="1" 
F 0 "C19" H 5523 1679 50  0000 R CNN
F 1 "100p" H 5523 1770 50  0000 R CNN
F 2 "Capacitor_SMD:C_0402_1005Metric" H 5615 1725 50  0001 C CNN
F 3 "~" H 5615 1725 50  0001 C CNN
F 4 "Capacitor, 0402, 5%, 50V, NPO/COG" H 5615 1725 50  0001 C CNN "Description"
F 5 "KEMET" H 5615 1725 50  0001 C CNN "Mnf."
F 6 "CBR04C101J3GAC" H 5615 1725 50  0001 C CNN "Part Number"
	1    5615 1725
	0    -1   1    0   
$EndComp
Wire Wire Line
	5715 1725 5765 1725
Wire Wire Line
	5715 1075 5765 1075
Wire Wire Line
	5765 1075 5765 1725
Wire Wire Line
	5515 1725 5440 1725
Wire Wire Line
	5440 1725 5440 1400
Wire Wire Line
	5440 1075 5515 1075
$Comp
L power:GNDA #PWR018
U 1 1 5F438432
P 5765 1775
F 0 "#PWR018" H 5765 1525 50  0001 C CNN
F 1 "GNDA" H 5770 1602 50  0000 C CNN
F 2 "" H 5765 1775 50  0001 C CNN
F 3 "" H 5765 1775 50  0001 C CNN
	1    5765 1775
	1    0    0    -1  
$EndComp
Wire Wire Line
	5765 1775 5765 1725
Connection ~ 5765 1725
Wire Wire Line
	5440 925  5440 1075
Connection ~ 5440 1075
$Comp
L Device:C_Small C?
U 1 1 5F4E4DE6
P 6190 1075
AR Path="/5E50DEC8/5E57854A/5F4E4DE6" Ref="C?"  Part="1" 
AR Path="/5E50DEC8/5EBAAD2D/5F4E4DE6" Ref="C?"  Part="1" 
AR Path="/5F4E4DE6" Ref="C22"  Part="1" 
F 0 "C22" H 6098 1029 50  0000 R CNN
F 1 "100n" H 6098 1120 50  0000 R CNN
F 2 "Capacitor_SMD:C_0402_1005Metric" H 6190 1075 50  0001 C CNN
F 3 "~" H 6190 1075 50  0001 C CNN
F 4 "Capacitor, 0603, 10%, 50V, X7R" H 6190 1075 50  0001 C CNN "Description"
F 5 "KEMET" H 6190 1075 50  0001 C CNN "Mnf."
F 6 "C0402C104K4RACTU" H 6190 1075 50  0001 C CNN "Part Number"
	1    6190 1075
	0    -1   1    0   
$EndComp
Wire Wire Line
	6290 1725 6340 1725
Wire Wire Line
	6290 1075 6340 1075
Wire Wire Line
	6090 1725 6015 1725
Wire Wire Line
	6015 1725 6015 1400
Wire Wire Line
	6015 1075 6090 1075
Connection ~ 6015 1725
Wire Wire Line
	6015 1075 6015 925 
Connection ~ 6015 1075
$Comp
L power:GNDA #PWR023
U 1 1 5F54DFA6
P 6340 1765
F 0 "#PWR023" H 6340 1515 50  0001 C CNN
F 1 "GNDA" H 6345 1592 50  0000 C CNN
F 2 "" H 6340 1765 50  0001 C CNN
F 3 "" H 6340 1765 50  0001 C CNN
	1    6340 1765
	1    0    0    -1  
$EndComp
$Comp
L Device:R_Small R11
U 1 1 5F571EDA
P 6040 2465
F 0 "R11" H 5981 2419 50  0000 R CNN
F 1 "10k" H 5981 2510 50  0000 R CNN
F 2 "Resistor_SMD:R_0402_1005Metric" H 6040 2465 50  0001 C CNN
F 3 "~" H 6040 2465 50  0001 C CNN
F 4 "Resistor, 0402, 1%, 1/16W" H 6040 2465 50  0001 C CNN "Description"
	1    6040 2465
	-1   0    0    1   
$EndComp
Wire Wire Line
	5840 2375 5840 2325
Wire Wire Line
	5840 2325 6040 2325
Wire Wire Line
	4840 1725 4840 2025
Connection ~ 4840 2275
Wire Wire Line
	5340 1725 5340 2025
Wire Wire Line
	5440 2375 5440 2025
Connection ~ 5440 1725
Wire Wire Line
	5540 2375 5540 2075
Wire Wire Line
	5540 2075 6015 2075
Wire Wire Line
	6015 1725 6015 2020
Wire Wire Line
	6340 1075 6340 1725
Wire Wire Line
	6340 1765 6340 1725
Connection ~ 6340 1725
$Comp
L power:GNDA #PWR021
U 1 1 5F74186A
P 6040 2600
F 0 "#PWR021" H 6040 2350 50  0001 C CNN
F 1 "GNDA" H 6045 2427 50  0000 C CNN
F 2 "" H 6040 2600 50  0001 C CNN
F 3 "" H 6040 2600 50  0001 C CNN
	1    6040 2600
	1    0    0    -1  
$EndComp
Wire Wire Line
	5740 2375 5740 2125
Wire Wire Line
	5140 3775 5140 3925
Wire Wire Line
	5140 3925 5240 3925
Connection ~ 5240 3925
$Comp
L Device:C_Small C?
U 1 1 5F9C6E56
P 4365 4075
AR Path="/5E50DEC8/5E57854A/5F9C6E56" Ref="C?"  Part="1" 
AR Path="/5E50DEC8/5EBAAD2D/5F9C6E56" Ref="C?"  Part="1" 
AR Path="/5F9C6E56" Ref="C6"  Part="1" 
F 0 "C6" V 4136 4075 50  0000 C CNN
F 1 "1n" V 4227 4075 50  0000 C CNN
F 2 "Capacitor_SMD:C_0402_1005Metric" H 4365 4075 50  0001 C CNN
F 3 "~" H 4365 4075 50  0001 C CNN
F 4 "Capacitor, 0402, 10%, 50V, X7R" V 4365 4075 50  0001 C CNN "Description"
F 5 "KEMET " H 4365 4075 50  0001 C CNN "Mnf."
F 6 "C0402C102K8RACAUTO" H 4365 4075 50  0001 C CNN "Part Number"
	1    4365 4075
	1    0    0    1   
$EndComp
$Comp
L Device:C_Small C?
U 1 1 5F9C7B15
P 4715 4075
AR Path="/5E50DEC8/5E57854A/5F9C7B15" Ref="C?"  Part="1" 
AR Path="/5E50DEC8/5EBAAD2D/5F9C7B15" Ref="C?"  Part="1" 
AR Path="/5F9C7B15" Ref="C11"  Part="1" 
F 0 "C11" V 4486 4075 50  0000 C CNN
F 1 "1n" V 4577 4075 50  0000 C CNN
F 2 "Capacitor_SMD:C_0402_1005Metric" H 4715 4075 50  0001 C CNN
F 3 "~" H 4715 4075 50  0001 C CNN
F 4 "Capacitor, 0402, 10%, 50V, X7R" H 4715 4075 50  0001 C CNN "Description"
F 5 "KEMET " H 4715 4075 50  0001 C CNN "Mnf."
F 6 "C0402C102K8RACAUTO" H 4715 4075 50  0001 C CNN "Part Number"
	1    4715 4075
	1    0    0    1   
$EndComp
Wire Wire Line
	4365 3975 4365 3850
Wire Wire Line
	4365 3850 4840 3850
Wire Wire Line
	4840 3850 4840 3775
Wire Wire Line
	4715 3975 4715 3900
Wire Wire Line
	4715 3900 4940 3900
Wire Wire Line
	4940 3900 4940 3775
$Comp
L power:GNDA #PWR08
U 1 1 5FA1EB68
P 4715 4300
F 0 "#PWR08" H 4715 4050 50  0001 C CNN
F 1 "GNDA" H 4720 4127 50  0000 C CNN
F 2 "" H 4715 4300 50  0001 C CNN
F 3 "" H 4715 4300 50  0001 C CNN
	1    4715 4300
	1    0    0    -1  
$EndComp
Wire Wire Line
	4365 4175 4365 4300
Wire Wire Line
	4715 4175 4715 4300
$Comp
L Device:C_Small C?
U 1 1 5FA7DD11
P 5040 4075
AR Path="/5E50DEC8/5E57854A/5FA7DD11" Ref="C?"  Part="1" 
AR Path="/5E50DEC8/5EBAAD2D/5FA7DD11" Ref="C?"  Part="1" 
AR Path="/5FA7DD11" Ref="C14"  Part="1" 
F 0 "C14" V 4811 4075 50  0000 C CNN
F 1 "1n" V 4902 4075 50  0000 C CNN
F 2 "Capacitor_SMD:C_0402_1005Metric" H 5040 4075 50  0001 C CNN
F 3 "~" H 5040 4075 50  0001 C CNN
F 4 "Capacitor, 0402, 10%, 50V, X7R" H 5040 4075 50  0001 C CNN "Description"
F 5 "KEMET " H 5040 4075 50  0001 C CNN "Mnf."
F 6 "C0402C102K8RACAUTO" H 5040 4075 50  0001 C CNN "Part Number"
	1    5040 4075
	1    0    0    1   
$EndComp
Wire Wire Line
	4365 4300 4715 4300
Wire Wire Line
	5040 3775 5040 3975
Wire Wire Line
	5040 4175 5040 4300
Wire Wire Line
	5040 4300 4715 4300
Connection ~ 4715 4300
Wire Wire Line
	6090 5850 6215 5850
$Comp
L power:GNDA #PWR012
U 1 1 5FBB2257
P 5240 6600
F 0 "#PWR012" H 5240 6350 50  0001 C CNN
F 1 "GNDA" H 5245 6427 50  0000 C CNN
F 2 "" H 5240 6600 50  0001 C CNN
F 3 "" H 5240 6600 50  0001 C CNN
	1    5240 6600
	1    0    0    -1  
$EndComp
Wire Wire Line
	5190 6350 5190 6425
Wire Wire Line
	5290 5350 5290 5300
Wire Wire Line
	5290 5300 5390 5300
Wire Wire Line
	5390 5300 5390 5350
Wire Wire Line
	3665 4225 3665 5775
Wire Wire Line
	3665 5775 3990 5775
Wire Wire Line
	3540 6025 3990 6025
Wire Wire Line
	3540 3175 3540 4030
Wire Wire Line
	4140 2100 4240 2100
$Comp
L Device:C_Small C?
U 1 1 5FD85FBB
P 5800 4750
AR Path="/5E50DEC8/5E57854A/5FD85FBB" Ref="C?"  Part="1" 
AR Path="/5E50DEC8/5EBAAD2D/5FD85FBB" Ref="C?"  Part="1" 
AR Path="/5FD85FBB" Ref="C20"  Part="1" 
F 0 "C20" H 5708 4704 50  0000 R CNN
F 1 "100n" H 5708 4795 50  0000 R CNN
F 2 "Capacitor_SMD:C_0402_1005Metric" H 5800 4750 50  0001 C CNN
F 3 "~" H 5800 4750 50  0001 C CNN
F 4 "Capacitor, 0603, 10%, 50V, X7R" H 5800 4750 50  0001 C CNN "Description"
F 5 "KEMET" H 5800 4750 50  0001 C CNN "Mnf."
F 6 "C0402C104K4RACTU" H 5800 4750 50  0001 C CNN "Part Number"
	1    5800 4750
	0    -1   1    0   
$EndComp
$Comp
L Device:C_Small C?
U 1 1 5FD85FC1
P 5800 5150
AR Path="/5E50DEC8/5E57854A/5FD85FC1" Ref="C?"  Part="1" 
AR Path="/5E50DEC8/5EBAAD2D/5FD85FC1" Ref="C?"  Part="1" 
AR Path="/5FD85FC1" Ref="C21"  Part="1" 
F 0 "C21" H 5708 5104 50  0000 R CNN
F 1 "100p" H 5708 5195 50  0000 R CNN
F 2 "Capacitor_SMD:C_0402_1005Metric" H 5800 5150 50  0001 C CNN
F 3 "~" H 5800 5150 50  0001 C CNN
F 4 "Capacitor, 0402, 5%, 50V, NPO/COG" H 5800 5150 50  0001 C CNN "Description"
F 5 "KEMET" H 5800 5150 50  0001 C CNN "Mnf."
F 6 "CBR04C101J3GAC" H 5800 5150 50  0001 C CNN "Part Number"
	1    5800 5150
	0    -1   1    0   
$EndComp
$Comp
L power:GNDA #PWR022
U 1 1 5FD85FC7
P 6060 5060
F 0 "#PWR022" H 6060 4810 50  0001 C CNN
F 1 "GNDA" H 6065 4887 50  0000 C CNN
F 2 "" H 6060 5060 50  0001 C CNN
F 3 "" H 6060 5060 50  0001 C CNN
	1    6060 5060
	1    0    0    -1  
$EndComp
Wire Wire Line
	5900 5150 5975 5150
Wire Wire Line
	5900 4750 5975 4750
Wire Wire Line
	5975 4750 5975 4950
Wire Wire Line
	5700 4750 5490 4750
Wire Wire Line
	5490 4750 5490 4845
Wire Wire Line
	5490 5150 5700 5150
Wire Wire Line
	4765 5060 4765 4945
Wire Wire Line
	4765 4945 4830 4945
Connection ~ 4830 4945
Wire Wire Line
	4830 4945 4830 5150
Wire Wire Line
	5490 5350 5490 5150
Connection ~ 5490 5150
Wire Wire Line
	6060 5060 6060 4950
Wire Wire Line
	6060 4950 5975 4950
Connection ~ 5975 4950
Wire Wire Line
	5975 4950 5975 5150
Wire Wire Line
	5490 4645 5490 4750
Connection ~ 5490 4750
Wire Wire Line
	5290 5300 5290 5150
Connection ~ 5290 5300
Connection ~ 5290 5150
Wire Wire Line
	5690 5350 5690 5300
Wire Wire Line
	5690 5300 7240 5300
$Comp
L Device:R_Small R15
U 1 1 5FF7F140
P 7240 5445
F 0 "R15" H 7181 5399 50  0000 R CNN
F 1 "10k" H 7181 5490 50  0000 R CNN
F 2 "Resistor_SMD:R_0402_1005Metric" H 7240 5445 50  0001 C CNN
F 3 "~" H 7240 5445 50  0001 C CNN
F 4 "Resistor, 0402, 1%, 1/16W" H 7240 5445 50  0001 C CNN "Description"
	1    7240 5445
	-1   0    0    1   
$EndComp
$Comp
L power:GNDA #PWR027
U 1 1 5FF82BB8
P 7240 5590
F 0 "#PWR027" H 7240 5340 50  0001 C CNN
F 1 "GNDA" H 7245 5417 50  0000 C CNN
F 2 "" H 7240 5590 50  0001 C CNN
F 3 "" H 7240 5590 50  0001 C CNN
	1    7240 5590
	1    0    0    -1  
$EndComp
$Comp
L power:GNDA #PWR024
U 1 1 5FF9D45C
P 6630 2490
F 0 "#PWR024" H 6630 2240 50  0001 C CNN
F 1 "GNDA" H 6635 2317 50  0000 C CNN
F 2 "" H 6630 2490 50  0001 C CNN
F 3 "" H 6630 2490 50  0001 C CNN
	1    6630 2490
	1    0    0    -1  
$EndComp
$Comp
L Device:C_Small C?
U 1 1 600BBE82
P 5490 6465
AR Path="/5E50DEC8/5E57854A/600BBE82" Ref="C?"  Part="1" 
AR Path="/5E50DEC8/5EBAAD2D/600BBE82" Ref="C?"  Part="1" 
AR Path="/600BBE82" Ref="C17"  Part="1" 
F 0 "C17" V 5261 6465 50  0000 C CNN
F 1 "C_Small" V 5352 6465 50  0000 C CNN
F 2 "Capacitor_SMD:C_0402_1005Metric" H 5490 6465 50  0001 C CNN
F 3 "~" H 5490 6465 50  0001 C CNN
	1    5490 6465
	-1   0    0    -1  
$EndComp
Wire Wire Line
	5490 6365 5490 6350
Wire Wire Line
	5490 6565 5490 6600
$Comp
L power:GNDA #PWR017
U 1 1 600F4EEF
P 5490 6600
F 0 "#PWR017" H 5490 6350 50  0001 C CNN
F 1 "GNDA" H 5495 6427 50  0000 C CNN
F 2 "" H 5490 6600 50  0001 C CNN
F 3 "" H 5490 6600 50  0001 C CNN
	1    5490 6600
	1    0    0    -1  
$EndComp
$Comp
L Device:C_Small C?
U 1 1 60104548
P 4090 1075
AR Path="/5E50DEC8/5E57854A/60104548" Ref="C?"  Part="1" 
AR Path="/5E50DEC8/5EBAAD2D/60104548" Ref="C?"  Part="1" 
AR Path="/60104548" Ref="C4"  Part="1" 
F 0 "C4" H 3998 1029 50  0000 R CNN
F 1 "100n" H 3998 1120 50  0000 R CNN
F 2 "Capacitor_SMD:C_0402_1005Metric" H 4090 1075 50  0001 C CNN
F 3 "~" H 4090 1075 50  0001 C CNN
F 4 "Capacitor, 0603, 10%, 50V, X7R" H 4090 1075 50  0001 C CNN "Description"
F 5 "C0402C104K4RACTU" H 4090 1075 50  0001 C CNN "Part Number"
F 6 "KEMET" H 4090 1075 50  0001 C CNN "Mnf."
	1    4090 1075
	0    -1   1    0   
$EndComp
$Comp
L Device:C_Small C?
U 1 1 6010454E
P 4090 1725
AR Path="/5E50DEC8/5E57854A/6010454E" Ref="C?"  Part="1" 
AR Path="/5E50DEC8/5EBAAD2D/6010454E" Ref="C?"  Part="1" 
AR Path="/6010454E" Ref="C5"  Part="1" 
F 0 "C5" H 3998 1679 50  0000 R CNN
F 1 "100p" H 3998 1770 50  0000 R CNN
F 2 "Capacitor_SMD:C_0402_1005Metric" H 4090 1725 50  0001 C CNN
F 3 "~" H 4090 1725 50  0001 C CNN
F 4 "Capacitor, 0402, 5%, 50V, NPO/COG" H 4090 1725 50  0001 C CNN "Description"
F 5 "KEMET" H 4090 1725 50  0001 C CNN "Mnf."
F 6 "CBR04C101J3GAC" H 4090 1725 50  0001 C CNN "Part Number"
	1    4090 1725
	0    -1   1    0   
$EndComp
Wire Wire Line
	4240 925  4240 1075
Wire Wire Line
	4190 1725 4240 1725
Wire Wire Line
	4190 1075 4240 1075
Connection ~ 4240 1075
Wire Wire Line
	3990 1725 3915 1725
Wire Wire Line
	3915 1725 3915 1075
Wire Wire Line
	3915 1075 3990 1075
$Comp
L power:GNDA #PWR04
U 1 1 6010455D
P 3915 1800
F 0 "#PWR04" H 3915 1550 50  0001 C CNN
F 1 "GNDA" H 3920 1627 50  0000 C CNN
F 2 "" H 3915 1800 50  0001 C CNN
F 3 "" H 3915 1800 50  0001 C CNN
	1    3915 1800
	1    0    0    -1  
$EndComp
Wire Wire Line
	3915 1800 3915 1725
Connection ~ 3915 1725
Wire Wire Line
	4240 1725 4240 2100
Connection ~ 4240 1725
Connection ~ 4240 2100
Wire Wire Line
	4240 2100 4340 2100
Wire Wire Line
	5540 3925 5640 3925
Wire Wire Line
	5440 4025 5440 3925
Wire Wire Line
	6090 5750 6215 5750
Wire Wire Line
	6090 5650 6215 5650
$Comp
L Device:R_Small R4
U 1 1 6024043D
P 4590 5450
F 0 "R4" H 4531 5404 50  0000 R CNN
F 1 "499" H 4531 5495 50  0000 R CNN
F 2 "Resistor_SMD:R_0402_1005Metric" H 4590 5450 50  0001 C CNN
F 3 "~" H 4590 5450 50  0001 C CNN
F 4 "Resistor, 0402, 0.1%, 1/16W" H 4590 5450 50  0001 C CNN "Description"
F 5 "ERA-2AEB4990X" H 4590 5450 50  0001 C CNN "Part Number"
F 6 "Panasonic" H 4590 5450 50  0001 C CNN "Mnf."
	1    4590 5450
	0    1    1    0   
$EndComp
$Comp
L power:GNDA #PWR05
U 1 1 60241662
P 4040 5435
F 0 "#PWR05" H 4040 5185 50  0001 C CNN
F 1 "GNDA" H 4045 5262 50  0000 C CNN
F 2 "" H 4040 5435 50  0001 C CNN
F 3 "" H 4040 5435 50  0001 C CNN
	1    4040 5435
	1    0    0    -1  
$EndComp
Wire Wire Line
	4890 5650 4790 5650
Wire Wire Line
	4790 5650 4790 5450
Wire Wire Line
	4790 5450 4690 5450
Wire Wire Line
	6630 2490 6630 2460
$Comp
L Device:R_Small R14
U 1 1 5FF9A5FB
P 6630 2360
F 0 "R14" H 6571 2314 50  0000 R CNN
F 1 "412" H 6571 2405 50  0000 R CNN
F 2 "Resistor_SMD:R_0402_1005Metric" H 6630 2360 50  0001 C CNN
F 3 "~" H 6630 2360 50  0001 C CNN
F 4 "Resistor, 0402, 1%, 1/16W" H 6630 2360 50  0001 C CNN "Description"
F 5 "Panasonic" H 6630 2360 50  0001 C CNN "Mnf."
F 6 "ERA-2AEB4120X" H 6630 2360 50  0001 C CNN "Part Number"
	1    6630 2360
	-1   0    0    1   
$EndComp
Wire Wire Line
	6630 2260 6630 2125
Wire Wire Line
	7015 3500 7015 3475
Wire Wire Line
	7015 2675 7015 2650
$Comp
L Device:R_Small R10
U 1 1 60EAD0B3
P 6015 1300
F 0 "R10" H 5956 1254 50  0000 R CNN
F 1 "0" H 5956 1345 50  0000 R CNN
F 2 "Resistor_SMD:R_0402_1005Metric" H 6015 1300 50  0001 C CNN
F 3 "~" H 6015 1300 50  0001 C CNN
F 4 "Resistor, 0402, 5%, 1/16W" H 6015 1300 50  0001 C CNN "Description"
	1    6015 1300
	-1   0    0    1   
$EndComp
Wire Wire Line
	6015 1200 6015 1075
$Comp
L Device:R_Small R8
U 1 1 60EAE233
P 5440 1300
F 0 "R8" H 5381 1254 50  0000 R CNN
F 1 "0" H 5381 1345 50  0000 R CNN
F 2 "Resistor_SMD:R_0402_1005Metric" H 5440 1300 50  0001 C CNN
F 3 "~" H 5440 1300 50  0001 C CNN
F 4 "Resistor, 0402, 5%, 1/16W" H 5440 1300 50  0001 C CNN "Description"
	1    5440 1300
	-1   0    0    1   
$EndComp
Wire Wire Line
	5440 1200 5440 1075
$Comp
L Device:R_Small R7
U 1 1 60EAE6FF
P 5340 1300
F 0 "R7" H 5281 1254 50  0000 R CNN
F 1 "0" H 5281 1345 50  0000 R CNN
F 2 "Resistor_SMD:R_0402_1005Metric" H 5340 1300 50  0001 C CNN
F 3 "~" H 5340 1300 50  0001 C CNN
F 4 "Resistor, 0402, 5%, 1/16W" H 5340 1300 50  0001 C CNN "Description"
	1    5340 1300
	1    0    0    1   
$EndComp
$Comp
L Device:R_Small R5
U 1 1 60EAEBE7
P 4840 1300
F 0 "R5" H 4781 1254 50  0000 R CNN
F 1 "0" H 4781 1345 50  0000 R CNN
F 2 "Resistor_SMD:R_0402_1005Metric" H 4840 1300 50  0001 C CNN
F 3 "~" H 4840 1300 50  0001 C CNN
F 4 "Resistor, 0402, 5%, 1/16W" H 4840 1300 50  0001 C CNN "Description"
	1    4840 1300
	1    0    0    1   
$EndComp
Wire Wire Line
	4840 1400 4840 1725
Wire Wire Line
	5340 1400 5340 1725
Wire Wire Line
	5015 1075 5015 1725
$Comp
L Device:R_Small R6
U 1 1 61A0AC50
P 5290 4950
F 0 "R6" H 5231 4904 50  0000 R CNN
F 1 "0" H 5231 4995 50  0000 R CNN
F 2 "Resistor_SMD:R_0402_1005Metric" H 5290 4950 50  0001 C CNN
F 3 "~" H 5290 4950 50  0001 C CNN
F 4 "Resistor, 0402, 5%, 1/16W" H 5290 4950 50  0001 C CNN "Description"
	1    5290 4950
	1    0    0    1   
$EndComp
Wire Wire Line
	5290 5050 5290 5150
$Comp
L Device:R_Small R9
U 1 1 61A0DB53
P 5490 4945
F 0 "R9" H 5431 4899 50  0000 R CNN
F 1 "0" H 5431 4990 50  0000 R CNN
F 2 "Resistor_SMD:R_0402_1005Metric" H 5490 4945 50  0001 C CNN
F 3 "~" H 5490 4945 50  0001 C CNN
F 4 "Resistor, 0402, 5%, 1/16W" H 5490 4945 50  0001 C CNN "Description"
	1    5490 4945
	-1   0    0    1   
$EndComp
Wire Wire Line
	5490 5045 5490 5150
$Comp
L Device:R_Small R12
U 1 1 61B18C59
P 6315 5650
F 0 "R12" H 6256 5604 50  0000 R CNN
F 1 "1k" H 6256 5695 50  0000 R CNN
F 2 "Resistor_SMD:R_0402_1005Metric" H 6315 5650 50  0001 C CNN
F 3 "~" H 6315 5650 50  0001 C CNN
F 4 "Resistor, 0402, 1%, 1/16W" H 6315 5650 50  0001 C CNN "Description"
F 5 "" H 6315 5650 50  0001 C CNN "Part Number"
F 6 "" H 6315 5650 50  0001 C CNN "Mnf."
	1    6315 5650
	0    1    1    0   
$EndComp
Wire Wire Line
	6415 5650 6490 5650
Wire Wire Line
	4240 1075 4240 1725
Wire Wire Line
	7240 5545 7240 5590
Wire Wire Line
	7240 5345 7240 5300
Wire Wire Line
	6040 2365 6040 2325
Wire Wire Line
	6040 2600 6040 2565
$Comp
L Device:R_Small R16
U 1 1 5F5EF1F6
P 7465 5300
F 0 "R16" H 7406 5254 50  0000 R CNN
F 1 "0" H 7406 5345 50  0000 R CNN
F 2 "Resistor_SMD:R_0402_1005Metric" H 7465 5300 50  0001 C CNN
F 3 "~" H 7465 5300 50  0001 C CNN
F 4 "Resistor, 0402, 5%, 1/16W" H 7465 5300 50  0001 C CNN "Description"
	1    7465 5300
	0    1    1    0   
$EndComp
Wire Wire Line
	7565 5300 7765 5300
Wire Wire Line
	7365 5300 7240 5300
Connection ~ 7240 5300
$Comp
L lsf-kicad:AD8318 U2
U 1 1 5EFCE1CA
P 5490 5850
AR Path="/5EFCE1CA" Ref="U2"  Part="1" 
AR Path="/5E50DEC8/5EBAAD2D/5EFCE1CA" Ref="U?"  Part="1" 
F 0 "U2" H 5465 5800 50  0000 R CNN
F 1 "AD8318" H 5540 5925 50  0000 R CNN
F 2 "Package_DFN_QFN:QFN-16-1EP_4x4mm_P0.65mm_EP2.1x2.1mm_ThermalVias" H 5490 5850 50  0001 C CNN
F 3 "https://www.analog.com/media/en/technical-documentation/data-sheets/AD8318.pdf" H 5490 5850 50  0001 C CNN
F 4 "Analog Devices" H 5490 5850 50  0001 C CNN "Mnf."
F 5 "AD8318ACPZ-REEL7" H 5490 5850 50  0001 C CNN "Part Number"
	1    5490 5850
	1    0    0    -1  
$EndComp
Wire Wire Line
	5190 6425 5240 6425
Wire Wire Line
	5290 6350 5290 6425
Wire Wire Line
	5240 6600 5240 6425
Connection ~ 5240 6425
Wire Wire Line
	5240 6425 5290 6425
$Comp
L power:GNDA #PWR019
U 1 1 5F365537
P 5790 6600
F 0 "#PWR019" H 5790 6350 50  0001 C CNN
F 1 "GNDA" H 5795 6427 50  0000 C CNN
F 2 "" H 5790 6600 50  0001 C CNN
F 3 "" H 5790 6600 50  0001 C CNN
	1    5790 6600
	1    0    0    -1  
$EndComp
Wire Wire Line
	5790 6350 5790 6600
$Comp
L power:PWR_FLAG #FLG01
U 1 1 5F803DFD
P 4840 2025
F 0 "#FLG01" H 4840 2100 50  0001 C CNN
F 1 "PWR_FLAG" V 4840 2152 50  0000 L CNN
F 2 "" H 4840 2025 50  0001 C CNN
F 3 "~" H 4840 2025 50  0001 C CNN
	1    4840 2025
	0    -1   -1   0   
$EndComp
$Comp
L power:PWR_FLAG #FLG03
U 1 1 5F8051FA
P 5340 2025
F 0 "#FLG03" H 5340 2100 50  0001 C CNN
F 1 "PWR_FLAG" V 5340 2152 50  0000 L CNN
F 2 "" H 5340 2025 50  0001 C CNN
F 3 "~" H 5340 2025 50  0001 C CNN
	1    5340 2025
	0    -1   -1   0   
$EndComp
Connection ~ 5340 2025
Wire Wire Line
	5340 2025 5340 2375
$Comp
L power:PWR_FLAG #FLG04
U 1 1 5F863E13
P 5440 2025
F 0 "#FLG04" H 5440 2100 50  0001 C CNN
F 1 "PWR_FLAG" V 5440 2153 50  0000 L CNN
F 2 "" H 5440 2025 50  0001 C CNN
F 3 "~" H 5440 2025 50  0001 C CNN
	1    5440 2025
	0    1    1    0   
$EndComp
Connection ~ 5440 2025
Wire Wire Line
	5440 2025 5440 1725
$Comp
L power:PWR_FLAG #FLG05
U 1 1 5F89C16A
P 6015 2020
F 0 "#FLG05" H 6015 2095 50  0001 C CNN
F 1 "PWR_FLAG" V 6015 2148 50  0000 L CNN
F 2 "" H 6015 2020 50  0001 C CNN
F 3 "~" H 6015 2020 50  0001 C CNN
	1    6015 2020
	0    1    1    0   
$EndComp
$Comp
L Device:C_Small C?
U 1 1 5F4E4DEC
P 6190 1725
AR Path="/5E50DEC8/5E57854A/5F4E4DEC" Ref="C?"  Part="1" 
AR Path="/5E50DEC8/5EBAAD2D/5F4E4DEC" Ref="C?"  Part="1" 
AR Path="/5F4E4DEC" Ref="C23"  Part="1" 
F 0 "C23" V 5961 1725 50  0000 C CNN
F 1 "100p" V 6052 1725 50  0000 C CNN
F 2 "Capacitor_SMD:C_0402_1005Metric" H 6190 1725 50  0001 C CNN
F 3 "~" H 6190 1725 50  0001 C CNN
F 4 "Capacitor, 0402, 5%, 50V, NPO/COG" H 6190 1725 50  0001 C CNN "Description"
F 5 "KEMET" H 6190 1725 50  0001 C CNN "Mnf."
F 6 "CBR04C101J3GAC" H 6190 1725 50  0001 C CNN "Part Number"
	1    6190 1725
	0    -1   1    0   
$EndComp
Connection ~ 6015 2020
Wire Wire Line
	6015 2020 6015 2075
Connection ~ 4840 2025
Wire Wire Line
	4840 2025 4840 2275
$Comp
L power:PWR_FLAG #FLG02
U 1 1 5F9E6F6E
P 5290 5300
F 0 "#FLG02" H 5290 5375 50  0001 C CNN
F 1 "PWR_FLAG" V 5290 5427 50  0000 L CNN
F 2 "" H 5290 5300 50  0001 C CNN
F 3 "~" H 5290 5300 50  0001 C CNN
	1    5290 5300
	0    -1   -1   0   
$EndComp
$Comp
L Device:R_POT RV1
U 1 1 5F565346
P 4285 5135
F 0 "RV1" V 4078 5135 50  0000 C CNN
F 1 "1k" V 4169 5135 50  0000 C CNN
F 2 "Potentiometer_SMD:Potentiometer_Bourns_3314J_Vertical" H 4285 5135 50  0001 C CNN
F 3 "~" H 4285 5135 50  0001 C CNN
F 4 "Bourns" H 4285 5135 50  0001 C CNN "Mnf."
F 5 "3314J-1-102E" H 4285 5135 50  0001 C CNN "Part Number"
	1    4285 5135
	0    1    1    0   
$EndComp
Wire Wire Line
	4285 5285 4285 5450
Wire Wire Line
	4285 5450 4490 5450
NoConn ~ 4435 5135
Wire Wire Line
	4040 5435 4040 5135
Wire Wire Line
	4040 5135 4135 5135
$Comp
L lsf-kicad:LTCC-Balun-06Pins T1
U 1 1 5F66B22E
P 2890 3075
F 0 "T1" H 2515 3550 50  0000 C CNN
F 1 "1720BL15B0050" H 2465 3475 50  0000 C CNN
F 2 "RF_Converter:Anaren_0805_2012Metric-6" H 2890 3075 50  0001 C CNN
F 3 "~" H 2890 3075 50  0001 C CNN
F 4 "1720BL15B0050E" H 2890 3075 50  0001 C CNN "Part Number"
F 5 "Johanson Technology" H 2890 3075 50  0001 C CNN "Mnf."
	1    2890 3075
	1    0    0    -1  
$EndComp
$Comp
L Connector:Conn_Coaxial ANT-S1
U 1 1 5F67CAE8
P 1725 3075
F 0 "ANT-S1" H 1825 3050 50  0000 L CNN
F 1 "RF 24" H 1825 2959 50  0000 L CNN
F 2 "Connector_Coaxial:SMA_Amphenol_132289_EdgeMount" H 1725 3075 50  0001 C CNN
F 3 " ~" H 1725 3075 50  0001 C CNN
F 4 "Amphenol RF" H 1725 3075 50  0001 C CNN "Mnf."
F 5 "132289 " H 1725 3075 50  0001 C CNN "Part Number"
	1    1725 3075
	-1   0    0    -1  
$EndComp
$Comp
L Device:C_Small C?
U 1 1 5F68098B
P 2210 3075
AR Path="/5E50DEC8/5E57854A/5F68098B" Ref="C?"  Part="1" 
AR Path="/5E50DEC8/5EBAAD2D/5F68098B" Ref="C?"  Part="1" 
AR Path="/5F68098B" Ref="C1"  Part="1" 
F 0 "C1" H 2118 3029 50  0000 R CNN
F 1 "100p" H 2118 3120 50  0000 R CNN
F 2 "Capacitor_SMD:C_0402_1005Metric" H 2210 3075 50  0001 C CNN
F 3 "~" H 2210 3075 50  0001 C CNN
F 4 "Capacitor, 0402, 5%, 50V, NPO/COG " H 2210 3075 50  0001 C CNN "Description"
F 5 "KEMET" H 2210 3075 50  0001 C CNN "Mnf."
F 6 "CBR04C101J3GAC" H 2210 3075 50  0001 C CNN "Part Number"
	1    2210 3075
	0    -1   1    0   
$EndComp
Wire Wire Line
	1925 3075 2110 3075
Wire Wire Line
	2310 3075 2490 3075
$Comp
L power:GNDA #PWR01
U 1 1 5F699A6A
P 1725 3550
F 0 "#PWR01" H 1725 3300 50  0001 C CNN
F 1 "GNDA" H 1730 3377 50  0000 C CNN
F 2 "" H 1725 3550 50  0001 C CNN
F 3 "" H 1725 3550 50  0001 C CNN
	1    1725 3550
	1    0    0    -1  
$EndComp
$Comp
L power:GNDA #PWR03
U 1 1 5F69AFD8
P 2890 3550
F 0 "#PWR03" H 2890 3300 50  0001 C CNN
F 1 "GNDA" H 2895 3377 50  0000 C CNN
F 2 "" H 2890 3550 50  0001 C CNN
F 3 "" H 2890 3550 50  0001 C CNN
	1    2890 3550
	1    0    0    -1  
$EndComp
$Comp
L power:GNDA #PWR02
U 1 1 5F69CBD5
P 2890 2515
F 0 "#PWR02" H 2890 2265 50  0001 C CNN
F 1 "GNDA" H 2895 2342 50  0000 C CNN
F 2 "" H 2890 2515 50  0001 C CNN
F 3 "" H 2890 2515 50  0001 C CNN
	1    2890 2515
	-1   0    0    1   
$EndComp
Wire Wire Line
	2890 2675 2890 2515
Wire Wire Line
	1725 3550 1725 3275
Wire Wire Line
	2890 3550 2890 3475
$Comp
L power:+5V #PWR016
U 1 1 5F6BE23A
P 5490 4645
F 0 "#PWR016" H 5490 4495 50  0001 C CNN
F 1 "+5V" H 5505 4818 50  0000 C CNN
F 2 "" H 5490 4645 50  0001 C CNN
F 3 "" H 5490 4645 50  0001 C CNN
	1    5490 4645
	1    0    0    -1  
$EndComp
$Comp
L power:+5V #PWR020
U 1 1 5F6BF9DE
P 6015 925
F 0 "#PWR020" H 6015 775 50  0001 C CNN
F 1 "+5V" H 6030 1098 50  0000 C CNN
F 2 "" H 6015 925 50  0001 C CNN
F 3 "" H 6015 925 50  0001 C CNN
	1    6015 925 
	1    0    0    -1  
$EndComp
$Comp
L power:+5V #PWR014
U 1 1 5F6C015E
P 5440 925
F 0 "#PWR014" H 5440 775 50  0001 C CNN
F 1 "+5V" H 5455 1098 50  0000 C CNN
F 2 "" H 5440 925 50  0001 C CNN
F 3 "" H 5440 925 50  0001 C CNN
	1    5440 925 
	1    0    0    -1  
$EndComp
$Comp
L power:+5V #PWR010
U 1 1 5F6C057B
P 4840 925
F 0 "#PWR010" H 4840 775 50  0001 C CNN
F 1 "+5V" H 4855 1098 50  0000 C CNN
F 2 "" H 4840 925 50  0001 C CNN
F 3 "" H 4840 925 50  0001 C CNN
	1    4840 925 
	1    0    0    -1  
$EndComp
$Comp
L power:+5V #PWR06
U 1 1 5F6C0F95
P 4240 925
F 0 "#PWR06" H 4240 775 50  0001 C CNN
F 1 "+5V" H 4255 1098 50  0000 C CNN
F 2 "" H 4240 925 50  0001 C CNN
F 3 "" H 4240 925 50  0001 C CNN
	1    4240 925 
	1    0    0    -1  
$EndComp
$Comp
L power:+5V #PWR013
U 1 1 5F6C9D32
P 5290 4645
F 0 "#PWR013" H 5290 4495 50  0001 C CNN
F 1 "+5V" H 5305 4818 50  0000 C CNN
F 2 "" H 5290 4645 50  0001 C CNN
F 3 "" H 5290 4645 50  0001 C CNN
	1    5290 4645
	1    0    0    -1  
$EndComp
Text GLabel 6907 2125 2    50   Input ~ 0
GAIN_SET
Text GLabel 6215 5850 2    50   Output ~ 0
GAIN_SET
Text GLabel 6490 5650 2    50   Output ~ 0
AGC_TEMP
Text GLabel 6215 5750 2    50   Input ~ 0
VSET_AGC
Text GLabel 7765 5300 2    50   Input ~ 0
EN_AGC
Text GLabel 6040 2325 2    50   Input ~ 0
EN_AGC
$Comp
L Connector_Generic:Conn_02x03_Odd_Even J1
U 1 1 5F72A659
P 9335 4360
F 0 "J1" H 9385 4677 50  0000 C CNN
F 1 "Conn_02x03_Odd_Even" H 9385 4586 50  0000 C CNN
F 2 "Connector_Hirose:Hirose_DF11-6DP-2DSA_2x03_P2.00mm_Vertical" H 9335 4360 50  0001 C CNN
F 3 "~" H 9335 4360 50  0001 C CNN
F 4 "Hirose Connector" H 9335 4360 50  0001 C CNN "Mnf."
F 5 "DF11-6DP-2DSA(08)" H 9335 4360 50  0001 C CNN "Part Number"
	1    9335 4360
	1    0    0    -1  
$EndComp
$Comp
L power:+5V #PWR029
U 1 1 5F72C712
P 8815 4140
F 0 "#PWR029" H 8815 3990 50  0001 C CNN
F 1 "+5V" H 8830 4313 50  0000 C CNN
F 2 "" H 8815 4140 50  0001 C CNN
F 3 "" H 8815 4140 50  0001 C CNN
	1    8815 4140
	1    0    0    -1  
$EndComp
$Comp
L power:GNDA #PWR030
U 1 1 5F72D380
P 10375 4340
F 0 "#PWR030" H 10375 4090 50  0001 C CNN
F 1 "GNDA" H 10380 4167 50  0000 C CNN
F 2 "" H 10375 4340 50  0001 C CNN
F 3 "" H 10375 4340 50  0001 C CNN
	1    10375 4340
	1    0    0    -1  
$EndComp
Wire Wire Line
	8815 4260 9135 4260
Wire Wire Line
	9635 4260 10375 4260
Wire Wire Line
	10375 4260 10375 4340
Text GLabel 9065 4360 0    50   Input ~ 0
EN_AGC
Text GLabel 9065 4460 0    50   Input ~ 0
GAIN_SET
Text GLabel 9740 4360 2    50   Output ~ 0
AGC_TEMP
Text GLabel 9740 4460 2    50   Input ~ 0
VSET_AGC
Wire Wire Line
	9635 4360 9740 4360
Wire Wire Line
	9635 4460 9740 4460
Wire Wire Line
	9065 4460 9135 4460
Wire Wire Line
	9065 4360 9135 4360
$Comp
L power:PWR_FLAG #FLG0101
U 1 1 5F79165D
P 8815 4260
F 0 "#FLG0101" H 8815 4335 50  0001 C CNN
F 1 "PWR_FLAG" V 8815 4388 50  0000 L CNN
F 2 "" H 8815 4260 50  0001 C CNN
F 3 "~" H 8815 4260 50  0001 C CNN
	1    8815 4260
	0    -1   -1   0   
$EndComp
Connection ~ 8815 4260
Wire Wire Line
	8815 4140 8815 4260
$Comp
L power:PWR_FLAG #FLG0102
U 1 1 5F79190F
P 10375 4260
F 0 "#FLG0102" H 10375 4335 50  0001 C CNN
F 1 "PWR_FLAG" V 10375 4388 50  0000 L CNN
F 2 "" H 10375 4260 50  0001 C CNN
F 3 "~" H 10375 4260 50  0001 C CNN
	1    10375 4260
	0    1    1    0   
$EndComp
Connection ~ 10375 4260
$Comp
L power:+5V #PWR0101
U 1 1 5F806B45
P 5340 925
F 0 "#PWR0101" H 5340 775 50  0001 C CNN
F 1 "+5V" H 5355 1098 50  0000 C CNN
F 2 "" H 5340 925 50  0001 C CNN
F 3 "" H 5340 925 50  0001 C CNN
	1    5340 925 
	1    0    0    -1  
$EndComp
Text Notes 1980 4340 0    50   ~ 0
R1, R17: ERA-2AEB620X for -12dB
$Comp
L Device:R_Small R17
U 1 1 5F351643
P 3540 4130
F 0 "R17" H 3481 4084 50  0000 R CNN
F 1 "240" H 3481 4175 50  0000 R CNN
F 2 "Resistor_SMD:R_0402_1005Metric" H 3540 4130 50  0001 C CNN
F 3 "~" H 3540 4130 50  0001 C CNN
F 4 "Resistor, 0402, 0.1%, 1/16W" H 3540 4130 50  0001 C CNN "Description"
F 5 "Panasonic" H 3540 4130 50  0001 C CNN "Mnf."
F 6 "ERA-2AEB121X" H 3540 4130 50  0001 C CNN "Part Number"
	1    3540 4130
	1    0    0    -1  
$EndComp
Wire Wire Line
	3540 4230 3540 6025
Text Notes 1960 2225 0    50   ~ 0
ATB2012-50011-T000 for UHF
$Comp
L Device:R_Small R13
U 1 1 5FF923BE
P 6730 2125
F 0 "R13" H 6671 2079 50  0000 R CNN
F 1 "1k" H 6671 2170 50  0000 R CNN
F 2 "Resistor_SMD:R_0402_1005Metric" H 6730 2125 50  0001 C CNN
F 3 "~" H 6730 2125 50  0001 C CNN
F 4 "Resistor, 0402, 1%, 1/16W" H 6730 2125 50  0001 C CNN "Description"
	1    6730 2125
	0    -1   1    0   
$EndComp
Wire Wire Line
	6830 2125 6907 2125
Wire Wire Line
	5740 2125 6630 2125
$EndSCHEMATC
