EESchema Schematic File Version 4
EELAYER 30 0
EELAYER END
$Descr A4 11693 8268
encoding utf-8
Sheet 1 1
Title ""
Date ""
Rev ""
Comp ""
Comment1 ""
Comment2 ""
Comment3 ""
Comment4 ""
$EndDescr
Wire Wire Line
	7550 2550 7100 2550
Wire Wire Line
	7100 2550 7100 2850
Wire Wire Line
	7100 3150 7550 3150
Wire Wire Line
	7550 2850 7100 2850
Connection ~ 7100 2850
Wire Wire Line
	7100 2850 7100 3150
Text Label 7550 2650 2    50   ~ 0
RXD24_P
Text Label 7550 2750 2    50   ~ 0
RXD24_N
Text Label 7550 2950 2    50   ~ 0
RXCLK_P
$Comp
L Connector_Generic:Conn_01x07 J4
U 1 1 5E5E8660
P 7750 2850
F 0 "J4" H 7830 2892 50  0000 L CNN
F 1 "RX24/RXCLK" H 7830 2801 50  0000 L CNN
F 2 "lsf-kicad-lib:SATA-3M-5607-5102-SH" H 7750 2850 50  0001 C CNN
F 3 "~" H 7750 2850 50  0001 C CNN
F 4 "5607-5102-SH" H 7750 2850 50  0001 C CNN "Part Number"
	1    7750 2850
	1    0    0    -1  
$EndComp
Text Label 7550 3050 2    50   ~ 0
RXCLK_N
$Comp
L power:GND #PWR0104
U 1 1 5E5FF8A2
P 6500 3050
F 0 "#PWR0104" H 6500 2800 50  0001 C CNN
F 1 "GND" V 6505 2922 50  0000 R CNN
F 2 "" H 6500 3050 50  0001 C CNN
F 3 "" H 6500 3050 50  0001 C CNN
	1    6500 3050
	0    -1   -1   0   
$EndComp
Wire Wire Line
	6500 3050 6400 3050
Wire Wire Line
	6950 2950 7550 2950
Wire Wire Line
	6850 3050 7550 3050
Wire Wire Line
	6850 2950 6850 3050
Wire Wire Line
	6950 2850 6950 2950
$Comp
L power:GND #PWR0107
U 1 1 5E65D492
P 5800 3050
F 0 "#PWR0107" H 5800 2800 50  0001 C CNN
F 1 "GND" V 5805 2922 50  0000 R CNN
F 2 "" H 5800 3050 50  0001 C CNN
F 3 "" H 5800 3050 50  0001 C CNN
	1    5800 3050
	0    1    1    0   
$EndComp
Wire Wire Line
	5800 3050 5900 3050
NoConn ~ 5900 3150
NoConn ~ 6400 3150
NoConn ~ 5900 2950
NoConn ~ 5900 2850
Connection ~ 7100 3150
NoConn ~ 5900 4850
NoConn ~ 5900 4950
NoConn ~ 5900 5050
NoConn ~ 5900 5150
NoConn ~ 5900 5350
NoConn ~ 6400 5350
NoConn ~ 7550 4150
NoConn ~ 7550 4050
Wire Wire Line
	5800 5250 5900 5250
$Comp
L power:GND #PWR0108
U 1 1 5E65E127
P 5800 5250
F 0 "#PWR0108" H 5800 5000 50  0001 C CNN
F 1 "GND" V 5805 5122 50  0000 R CNN
F 2 "" H 5800 5250 50  0001 C CNN
F 3 "" H 5800 5250 50  0001 C CNN
	1    5800 5250
	0    1    1    0   
$EndComp
Wire Wire Line
	6900 5150 6400 5150
Wire Wire Line
	6900 5250 6900 5150
Wire Wire Line
	7550 5250 6900 5250
Wire Wire Line
	7000 5150 7550 5150
Wire Wire Line
	7000 5050 7000 5150
Wire Wire Line
	6400 5050 7000 5050
Wire Wire Line
	7550 4950 6400 4950
Wire Wire Line
	6400 4850 7550 4850
Text Label 5900 4950 2    50   ~ 0
V14
Text Label 5900 4850 2    50   ~ 0
U14
Text Label 7550 4950 2    50   ~ 0
TXD_N
Text Label 7550 4850 2    50   ~ 0
TXD_P
Text Label 5900 5150 2    50   ~ 0
U13
Text Label 5900 5050 2    50   ~ 0
T13
Wire Wire Line
	6500 5250 6400 5250
$Comp
L power:GND #PWR0105
U 1 1 5E5FFD0C
P 6500 5250
F 0 "#PWR0105" H 6500 5000 50  0001 C CNN
F 1 "GND" V 6505 5122 50  0000 R CNN
F 2 "" H 6500 5250 50  0001 C CNN
F 3 "" H 6500 5250 50  0001 C CNN
	1    6500 5250
	0    -1   -1   0   
$EndComp
Text Label 7550 5250 2    50   ~ 0
TXCLK_N
Text Label 7550 5150 2    50   ~ 0
TXCLK_P
Text Label 7550 3850 2    50   ~ 0
RXD09_N
Text Label 7550 3750 2    50   ~ 0
RXD09_P
Wire Wire Line
	7100 5050 7100 5350
Connection ~ 7100 5050
Wire Wire Line
	7550 5050 7100 5050
Connection ~ 7100 5350
Wire Wire Line
	7100 5350 7550 5350
Wire Wire Line
	7100 4750 7100 5050
Wire Wire Line
	7550 4750 7100 4750
Wire Wire Line
	7100 3950 7100 4250
Connection ~ 7100 3950
Wire Wire Line
	7550 3950 7100 3950
Connection ~ 7100 4250
Wire Wire Line
	7100 4250 7550 4250
Wire Wire Line
	7100 3650 7100 3950
Wire Wire Line
	7550 3650 7100 3650
$Comp
L power:GND #PWR0103
U 1 1 5E5EAA6B
P 7100 5350
F 0 "#PWR0103" H 7100 5100 50  0001 C CNN
F 1 "GND" H 7105 5177 50  0000 C CNN
F 2 "" H 7100 5350 50  0001 C CNN
F 3 "" H 7100 5350 50  0001 C CNN
	1    7100 5350
	1    0    0    -1  
$EndComp
$Comp
L power:GND #PWR0102
U 1 1 5E5EA78A
P 7100 4250
F 0 "#PWR0102" H 7100 4000 50  0001 C CNN
F 1 "GND" H 7105 4077 50  0000 C CNN
F 2 "" H 7100 4250 50  0001 C CNN
F 3 "" H 7100 4250 50  0001 C CNN
	1    7100 4250
	1    0    0    -1  
$EndComp
$Comp
L power:GND #PWR0101
U 1 1 5E5EA3F4
P 7100 3150
F 0 "#PWR0101" H 7100 2900 50  0001 C CNN
F 1 "GND" H 7105 2977 50  0000 C CNN
F 2 "" H 7100 3150 50  0001 C CNN
F 3 "" H 7100 3150 50  0001 C CNN
	1    7100 3150
	1    0    0    -1  
$EndComp
$Comp
L Connector_Generic:Conn_01x07 J6
U 1 1 5E5E8FAD
P 7750 5050
F 0 "J6" H 7830 5092 50  0000 L CNN
F 1 "TX" H 7830 5001 50  0000 L CNN
F 2 "lsf-kicad-lib:SATA-3M-5607-5102-SH" H 7750 5050 50  0001 C CNN
F 3 "~" H 7750 5050 50  0001 C CNN
F 4 "5607-5102-SH" H 7750 5050 50  0001 C CNN "Part Number"
	1    7750 5050
	1    0    0    -1  
$EndComp
$Comp
L Connector_Generic:Conn_01x07 J5
U 1 1 5E5E8A17
P 7750 3950
F 0 "J5" H 7830 3992 50  0000 L CNN
F 1 "RX09" H 7830 3901 50  0000 L CNN
F 2 "lsf-kicad-lib:SATA-3M-5607-5102-SH" H 7750 3950 50  0001 C CNN
F 3 "~" H 7750 3950 50  0001 C CNN
F 4 "5607-5102-SH" H 7750 3950 50  0001 C CNN "Part Number"
	1    7750 3950
	1    0    0    -1  
$EndComp
$Comp
L Connector_Generic:Conn_02x06_Odd_Even J3
U 1 1 5E5E3DF9
P 6200 5150
F 0 "J3" H 6250 5567 50  0000 C CNN
F 1 "Pmod JD" H 6250 5476 50  0000 C CNN
F 2 "Connector_PinHeader_2.54mm:PinHeader_2x06_P2.54mm_Horizontal" H 6200 5150 50  0001 C CNN
F 3 "~" H 6200 5150 50  0001 C CNN
	1    6200 5150
	-1   0    0    1   
$EndComp
Wire Wire Line
	5450 3750 7550 3750
Wire Wire Line
	7550 3850 5500 3850
Wire Wire Line
	5900 2650 5450 2650
Wire Wire Line
	5450 2650 5450 3750
Wire Wire Line
	5900 2750 5500 2750
Wire Wire Line
	5500 2750 5500 3850
Wire Wire Line
	6400 2950 6850 2950
Wire Wire Line
	6400 2850 6950 2850
Wire Wire Line
	6400 2750 7550 2750
Wire Wire Line
	6400 2650 7550 2650
$Comp
L Connector_Generic:Conn_02x06_Odd_Even J1
U 1 1 5E5E4158
P 6200 2950
F 0 "J1" H 6250 3367 50  0000 C CNN
F 1 "Pmod JB" H 6250 3276 50  0000 C CNN
F 2 "Connector_PinHeader_2.54mm:PinHeader_2x06_P2.54mm_Horizontal" H 6200 2950 50  0001 C CNN
F 3 "~" H 6200 2950 50  0001 C CNN
	1    6200 2950
	-1   0    0    1   
$EndComp
Text Notes 5700 2950 0    59   ~ 0
J17\nJ18\nK15\nJ15
Text Notes 6400 2950 0    59   ~ 0
E15\nE16\nD15\nC15
Text Notes 6400 5150 0    59   ~ 0
U12\nV12\nV10\nV11
$EndSCHEMATC
