EESchema Schematic File Version 4
EELAYER 30 0
EELAYER END
$Descr A4 11693 8268
encoding utf-8
Sheet 1 1
Title ""
Date ""
Rev ""
Comp ""
Comment1 ""
Comment2 ""
Comment3 ""
Comment4 ""
$EndDescr
$Comp
L lsf-kicad:TQP3M9036 U2
U 1 1 5ECA1E39
P 5520 3830
F 0 "U2" H 5520 4205 50  0000 C CNN
F 1 "TQP3M9036" H 5520 4296 50  0000 C CNN
F 2 "lsf-kicad-lib:DFN-8-1EP_2x2mm_P0.5mm_EP0.7x1.6mm_ThermalVias" H 7420 3980 50  0001 C CNN
F 3 "https://www.qorvo.com/products/d/da005543" H 5720 4180 50  0001 C CNN
F 4 "TQP3M9036" H 5520 3830 50  0001 C CNN "Part Number"
	1    5520 3830
	-1   0    0    -1  
$EndComp
$Comp
L Device:C_Small C?
U 1 1 5ECFF007
P 6355 3830
AR Path="/5E50DEC8/5E57854A/5ECFF007" Ref="C?"  Part="1" 
AR Path="/5E50DEC8/5EBAAD2D/5ECFF007" Ref="C?"  Part="1" 
AR Path="/5ECFF007" Ref="C6"  Part="1" 
F 0 "C6" H 6263 3784 50  0000 R CNN
F 1 "100p" H 6263 3875 50  0000 R CNN
F 2 "Capacitor_SMD:C_0402_1005Metric" H 6355 3830 50  0001 C CNN
F 3 "~" H 6355 3830 50  0001 C CNN
F 4 "Capacitor, 0402, 5%, 50V, NPO/COG" H 6355 3830 50  0001 C CNN "Description"
F 5 "KEMET" H 6355 3830 50  0001 C CNN "Mnf."
F 6 "CBR04C101J3GAC" H 6355 3830 50  0001 C CNN "Part Number"
	1    6355 3830
	0    1    -1   0   
$EndComp
$Comp
L Device:C_Small C?
U 1 1 5ECFF648
P 4720 3830
AR Path="/5E50DEC8/5E57854A/5ECFF648" Ref="C?"  Part="1" 
AR Path="/5E50DEC8/5EBAAD2D/5ECFF648" Ref="C?"  Part="1" 
AR Path="/5ECFF648" Ref="C3"  Part="1" 
F 0 "C3" H 4628 3784 50  0000 R CNN
F 1 "100p" H 4628 3875 50  0000 R CNN
F 2 "Capacitor_SMD:C_0402_1005Metric" H 4720 3830 50  0001 C CNN
F 3 "~" H 4720 3830 50  0001 C CNN
F 4 "Capacitor, 0402, 5%, 50V, NPO/COG" H 4720 3830 50  0001 C CNN "Comment"
F 5 "Capacitor, 0402, 5%, 50V, NPO/COG" H 4720 3830 50  0001 C CNN "Description"
F 6 "KEMET" H 4720 3830 50  0001 C CNN "Mnf."
F 7 "CBR04C101J3GAC" H 4720 3830 50  0001 C CNN "Part Number"
	1    4720 3830
	0    -1   1    0   
$EndComp
$Comp
L Device:L_Small L?
U 1 1 5ECFFBAA
P 4895 3380
AR Path="/5E50DEC8/5E57854A/5ECFFBAA" Ref="L?"  Part="1" 
AR Path="/5E50DEC8/5EBAAD2D/5ECFFBAA" Ref="L?"  Part="1" 
AR Path="/5ECFFBAA" Ref="L2"  Part="1" 
F 0 "L2" H 4943 3426 50  0000 L CNN
F 1 "68n" H 4943 3335 50  0000 L CNN
F 2 "Inductor_SMD:L_0402_1005Metric" H 4895 3380 50  0001 C CNN
F 3 "~" H 4895 3380 50  0001 C CNN
F 4 "Inductor, 0603, 5%, Ceramic" H 4895 3380 50  0001 C CNN "Description"
F 5 "Coilcraft" H 4895 3380 50  0001 C CNN "Mnf."
F 6 "0402DC-68NXJRW" H 4895 3380 50  0001 C CNN "Part Number"
	1    4895 3380
	-1   0    0    1   
$EndComp
$Comp
L Device:C_Small C?
U 1 1 5ED00150
P 5070 3130
AR Path="/5E50DEC8/5E57854A/5ED00150" Ref="C?"  Part="1" 
AR Path="/5E50DEC8/5EBAAD2D/5ED00150" Ref="C?"  Part="1" 
AR Path="/5ED00150" Ref="C5"  Part="1" 
F 0 "C5" H 4978 3084 50  0000 R CNN
F 1 "100p" H 4978 3175 50  0000 R CNN
F 2 "Capacitor_SMD:C_0402_1005Metric" H 5070 3130 50  0001 C CNN
F 3 "~" H 5070 3130 50  0001 C CNN
F 4 "Capacitor, 0402, 5%, 50V, NPO/COG" H 5070 3130 50  0001 C CNN "Description"
F 5 "KEMET" H 5070 3130 50  0001 C CNN "Mnf."
F 6 "CBR04C101J3GAC" H 5070 3130 50  0001 C CNN "Part Number"
	1    5070 3130
	0    -1   1    0   
$EndComp
$Comp
L Device:C_Small C?
U 1 1 5ED005EF
P 5070 2745
AR Path="/5E50DEC8/5E57854A/5ED005EF" Ref="C?"  Part="1" 
AR Path="/5E50DEC8/5EBAAD2D/5ED005EF" Ref="C?"  Part="1" 
AR Path="/5ED005EF" Ref="C4"  Part="1" 
F 0 "C4" H 4978 2699 50  0000 R CNN
F 1 "1u" H 4978 2790 50  0000 R CNN
F 2 "Capacitor_SMD:C_0402_1005Metric" H 5070 2745 50  0001 C CNN
F 3 "~" H 5070 2745 50  0001 C CNN
F 4 "Capacitor, 0402, 10%, 10V, X5R" H 5070 2745 50  0001 C CNN "Description"
F 5 "KEMET " H 5070 2745 50  0001 C CNN "Mnf."
F 6 "C0402C105K8PAC7411" H 5070 2745 50  0001 C CNN "Part Number"
	1    5070 2745
	0    -1   1    0   
$EndComp
Wire Wire Line
	6255 3830 6020 3830
Wire Wire Line
	5020 3830 4895 3830
Wire Wire Line
	4895 3480 4895 3830
Connection ~ 4895 3830
Wire Wire Line
	4895 3830 4820 3830
Wire Wire Line
	4895 3280 4895 3130
Wire Wire Line
	4895 2745 4970 2745
Wire Wire Line
	4970 3130 4895 3130
Connection ~ 4895 3130
Wire Wire Line
	4895 3130 4895 2745
Wire Wire Line
	5170 3130 5270 3130
Wire Wire Line
	5270 3130 5270 2930
Wire Wire Line
	5270 2745 5170 2745
$Comp
L power:GNDA #PWR?
U 1 1 5EDBBE77
P 5520 4355
AR Path="/5E50DEC8/5EBAAD2D/5EDBBE77" Ref="#PWR?"  Part="1" 
AR Path="/5E50DEC8/5E57854A/5EDBBE77" Ref="#PWR?"  Part="1" 
AR Path="/5EDBBE77" Ref="#PWR06"  Part="1" 
F 0 "#PWR06" H 5520 4105 50  0001 C CNN
F 1 "GNDA" H 5525 4182 50  0000 C CNN
F 2 "" H 5520 4355 50  0001 C CNN
F 3 "" H 5520 4355 50  0001 C CNN
	1    5520 4355
	1    0    0    -1  
$EndComp
Wire Wire Line
	4895 2745 4895 2680
Connection ~ 4895 2745
$Comp
L Device:R_Small R?
U 1 1 6062F15E
P 6220 3430
AR Path="/5E50DEC8/5EBAAD2D/6062F15E" Ref="R?"  Part="1" 
AR Path="/5E50DEC8/5E57854A/6062F15E" Ref="R?"  Part="1" 
AR Path="/6062F15E" Ref="R1"  Part="1" 
F 0 "R1" H 6161 3384 50  0000 R CNN
F 1 "0" H 6161 3475 50  0000 R CNN
F 2 "Resistor_SMD:R_0402_1005Metric" H 6220 3430 50  0001 C CNN
F 3 "~" H 6220 3430 50  0001 C CNN
F 4 "Resistor, 0402, 5%, 1/16W" H 6220 3430 50  0001 C CNN "Description"
	1    6220 3430
	0    -1   1    0   
$EndComp
$Comp
L power:GNDA #PWR?
U 1 1 60632133
P 6420 3430
AR Path="/5E50DEC8/5EBAAD2D/60632133" Ref="#PWR?"  Part="1" 
AR Path="/5E50DEC8/5E57854A/60632133" Ref="#PWR?"  Part="1" 
AR Path="/60632133" Ref="#PWR07"  Part="1" 
F 0 "#PWR07" H 6420 3180 50  0001 C CNN
F 1 "GNDA" H 6425 3257 50  0000 C CNN
F 2 "" H 6420 3430 50  0001 C CNN
F 3 "" H 6420 3430 50  0001 C CNN
	1    6420 3430
	1    0    0    -1  
$EndComp
Wire Wire Line
	6020 3630 6020 3430
Wire Wire Line
	6120 3430 6020 3430
Wire Wire Line
	6320 3430 6420 3430
Wire Wire Line
	5520 4355 5520 4230
Wire Wire Line
	6455 3830 6770 3830
$Comp
L power:GNDA #PWR?
U 1 1 6004D241
P 5410 3035
AR Path="/5E50DEC8/5EBAAD2D/6004D241" Ref="#PWR?"  Part="1" 
AR Path="/5E50DEC8/5E57854A/6004D241" Ref="#PWR?"  Part="1" 
AR Path="/6004D241" Ref="#PWR05"  Part="1" 
F 0 "#PWR05" H 5410 2785 50  0001 C CNN
F 1 "GNDA" H 5415 2862 50  0000 C CNN
F 2 "" H 5410 3035 50  0001 C CNN
F 3 "" H 5410 3035 50  0001 C CNN
	1    5410 3035
	1    0    0    -1  
$EndComp
Wire Wire Line
	5410 3035 5410 2930
Wire Wire Line
	5410 2930 5270 2930
Connection ~ 5270 2930
Wire Wire Line
	5270 2930 5270 2745
Wire Wire Line
	7570 3830 8010 3830
Wire Wire Line
	8385 4360 8385 4030
$Comp
L power:GNDA #PWR?
U 1 1 6173CF12
P 8385 4360
AR Path="/5E50DEC8/5EBAAD2D/6173CF12" Ref="#PWR?"  Part="1" 
AR Path="/5E50DEC8/5E57854A/6173CF12" Ref="#PWR?"  Part="1" 
AR Path="/6173CF12" Ref="#PWR010"  Part="1" 
F 0 "#PWR010" H 8385 4110 50  0001 C CNN
F 1 "GNDA" H 8390 4187 50  0000 C CNN
F 2 "" H 8385 4360 50  0001 C CNN
F 3 "" H 8385 4360 50  0001 C CNN
	1    8385 4360
	1    0    0    -1  
$EndComp
$Comp
L Connector:Conn_Coaxial ANT-U2
U 1 1 5E57CD84
P 8385 3830
F 0 "ANT-U2" H 8485 3805 50  0000 L CNN
F 1 "RF 09" H 8485 3714 50  0000 L CNN
F 2 "Connector_Coaxial:SMA_Amphenol_132289_EdgeMount" H 8385 3830 50  0001 C CNN
F 3 " ~" H 8385 3830 50  0001 C CNN
F 4 "Amphenol" H 8385 3830 50  0001 C CNN "Mnf."
F 5 "132289" H 8385 3830 50  0001 C CNN "Part Number"
	1    8385 3830
	1    0    0    -1  
$EndComp
$Comp
L lsf-kicad:DBP433TA30 U3
U 1 1 5F3B9151
P 7170 3830
F 0 "U3" H 7170 4247 50  0000 C CNN
F 1 "DBP433TA30" H 7170 4156 50  0000 C CNN
F 2 "lsf-kicad-lib:DBP433TA30" H 7170 3330 50  0001 C CNN
F 3 "https://www.taoglas.com/product/dbp-433-t-30-dielectric-band-pass-filter-433mhz/" H 7170 3930 50  0001 C CNN
F 4 "DBP433TA30" H 7170 3830 50  0001 C CNN "Part Number"
	1    7170 3830
	-1   0    0    -1  
$EndComp
$Comp
L power:GNDA #PWR?
U 1 1 5F3C1CCD
P 7370 4360
AR Path="/5E50DEC8/5EBAAD2D/5F3C1CCD" Ref="#PWR?"  Part="1" 
AR Path="/5E50DEC8/5E57854A/5F3C1CCD" Ref="#PWR?"  Part="1" 
AR Path="/5F3C1CCD" Ref="#PWR08"  Part="1" 
F 0 "#PWR08" H 7370 4110 50  0001 C CNN
F 1 "GNDA" H 7375 4187 50  0000 C CNN
F 2 "" H 7370 4360 50  0001 C CNN
F 3 "" H 7370 4360 50  0001 C CNN
	1    7370 4360
	1    0    0    -1  
$EndComp
Wire Wire Line
	7370 4360 7370 4230
$Comp
L lsf-kicad:DBP433TA30 U1
U 1 1 5F3C2F3F
P 4135 3830
F 0 "U1" H 4135 4247 50  0000 C CNN
F 1 "DBP433TA30" H 4135 4156 50  0000 C CNN
F 2 "lsf-kicad-lib:DBP433TA30" H 4135 3330 50  0001 C CNN
F 3 "https://www.taoglas.com/product/dbp-433-t-30-dielectric-band-pass-filter-433mhz/" H 4135 3930 50  0001 C CNN
F 4 "DBP433TA30" H 4135 3830 50  0001 C CNN "Part Number"
	1    4135 3830
	-1   0    0    -1  
$EndComp
$Comp
L power:GNDA #PWR?
U 1 1 5F3CD8B2
P 4335 4355
AR Path="/5E50DEC8/5EBAAD2D/5F3CD8B2" Ref="#PWR?"  Part="1" 
AR Path="/5E50DEC8/5E57854A/5F3CD8B2" Ref="#PWR?"  Part="1" 
AR Path="/5F3CD8B2" Ref="#PWR03"  Part="1" 
F 0 "#PWR03" H 4335 4105 50  0001 C CNN
F 1 "GNDA" H 4340 4182 50  0000 C CNN
F 2 "" H 4335 4355 50  0001 C CNN
F 3 "" H 4335 4355 50  0001 C CNN
	1    4335 4355
	1    0    0    -1  
$EndComp
Wire Wire Line
	4335 4355 4335 4230
$Comp
L Device:D_TVS D1
U 1 1 5F3D68E3
P 8010 4080
F 0 "D1" V 7964 4160 50  0000 L CNN
F 1 "D_TVS" V 8055 4160 50  0000 L CNN
F 2 "Diode_SMD:D_0603_1608Metric" H 8010 4080 50  0001 C CNN
F 3 "~" H 8010 4080 50  0001 C CNN
F 4 "Littelfuse" H 8010 4080 50  0001 C CNN "Mnf."
F 5 "PGB1010603MR" H 8010 4080 50  0001 C CNN "Part Number"
	1    8010 4080
	0    1    1    0   
$EndComp
Wire Wire Line
	8010 3930 8010 3830
Connection ~ 8010 3830
Wire Wire Line
	8010 3830 8185 3830
Wire Wire Line
	8010 4230 8010 4360
$Comp
L power:GNDA #PWR?
U 1 1 5F3D886E
P 8010 4360
AR Path="/5E50DEC8/5EBAAD2D/5F3D886E" Ref="#PWR?"  Part="1" 
AR Path="/5E50DEC8/5E57854A/5F3D886E" Ref="#PWR?"  Part="1" 
AR Path="/5F3D886E" Ref="#PWR09"  Part="1" 
F 0 "#PWR09" H 8010 4110 50  0001 C CNN
F 1 "GNDA" H 8015 4187 50  0000 C CNN
F 2 "" H 8010 4360 50  0001 C CNN
F 3 "" H 8010 4360 50  0001 C CNN
	1    8010 4360
	1    0    0    -1  
$EndComp
$Comp
L Connector:Conn_Coaxial ANT-U1
U 1 1 5F3DC96A
P 3145 3830
F 0 "ANT-U1" H 3245 3805 50  0000 L CNN
F 1 "RF 09" H 3245 3714 50  0000 L CNN
F 2 "Connector_Coaxial:SMA_Amphenol_132289_EdgeMount" H 3145 3830 50  0001 C CNN
F 3 " ~" H 3145 3830 50  0001 C CNN
F 4 "Amphenol" H 3145 3830 50  0001 C CNN "Mnf."
F 5 "132289" H 3145 3830 50  0001 C CNN "Part Number"
	1    3145 3830
	-1   0    0    -1  
$EndComp
Wire Wire Line
	3145 4030 3145 4360
$Comp
L power:GNDA #PWR?
U 1 1 5F3DF289
P 3145 4360
AR Path="/5E50DEC8/5EBAAD2D/5F3DF289" Ref="#PWR?"  Part="1" 
AR Path="/5E50DEC8/5E57854A/5F3DF289" Ref="#PWR?"  Part="1" 
AR Path="/5F3DF289" Ref="#PWR01"  Part="1" 
F 0 "#PWR01" H 3145 4110 50  0001 C CNN
F 1 "GNDA" H 3150 4187 50  0000 C CNN
F 2 "" H 3145 4360 50  0001 C CNN
F 3 "" H 3145 4360 50  0001 C CNN
	1    3145 4360
	1    0    0    -1  
$EndComp
$Comp
L Device:C_Small C?
U 1 1 5F3DFC80
P 3590 3830
AR Path="/5E50DEC8/5E57854A/5F3DFC80" Ref="C?"  Part="1" 
AR Path="/5E50DEC8/5EBAAD2D/5F3DFC80" Ref="C?"  Part="1" 
AR Path="/5F3DFC80" Ref="C2"  Part="1" 
F 0 "C2" H 3498 3784 50  0000 R CNN
F 1 "100p" H 3498 3875 50  0000 R CNN
F 2 "Capacitor_SMD:C_0402_1005Metric" H 3590 3830 50  0001 C CNN
F 3 "~" H 3590 3830 50  0001 C CNN
F 4 "Capacitor, 0402, 5%, 50V, NPO/COG" H 3590 3830 50  0001 C CNN "Comment"
F 5 "Capacitor, 0402, 5%, 50V, NPO/COG" H 3590 3830 50  0001 C CNN "Description"
F 6 "KEMET" H 3590 3830 50  0001 C CNN "Mnf."
F 7 "CBR04C101J3GAC" H 3590 3830 50  0001 C CNN "Part Number"
	1    3590 3830
	0    -1   1    0   
$EndComp
Wire Wire Line
	3490 3830 3400 3830
$Comp
L power:+5V #PWR04
U 1 1 5F3E156D
P 4895 2680
F 0 "#PWR04" H 4895 2530 50  0001 C CNN
F 1 "+5V" H 4910 2853 50  0000 C CNN
F 2 "" H 4895 2680 50  0001 C CNN
F 3 "" H 4895 2680 50  0001 C CNN
	1    4895 2680
	1    0    0    -1  
$EndComp
$Comp
L Device:L_Small L?
U 1 1 5F3E302A
P 3400 3520
AR Path="/5E50DEC8/5E57854A/5F3E302A" Ref="L?"  Part="1" 
AR Path="/5E50DEC8/5EBAAD2D/5F3E302A" Ref="L?"  Part="1" 
AR Path="/5F3E302A" Ref="L1"  Part="1" 
F 0 "L1" H 3448 3566 50  0000 L CNN
F 1 "10u" H 3448 3475 50  0000 L CNN
F 2 "Inductor_SMD:L_0402_1005Metric" H 3400 3520 50  0001 C CNN
F 3 "~" H 3400 3520 50  0001 C CNN
F 4 "Inductor, 0603, 5%, Ceramic" H 3400 3520 50  0001 C CNN "Description"
F 5 "Murata Electronics" H 3400 3520 50  0001 C CNN "Mnf."
F 6 "LQG15HN10NH02D" H 3400 3520 50  0001 C CNN "Part Number"
	1    3400 3520
	-1   0    0    1   
$EndComp
Wire Wire Line
	3400 3620 3400 3830
Connection ~ 3400 3830
Wire Wire Line
	3400 3830 3345 3830
Wire Wire Line
	3400 3420 3400 3100
Wire Wire Line
	3400 2745 4535 2745
$Comp
L Device:C_Small C?
U 1 1 5F3E7971
P 3555 3100
AR Path="/5E50DEC8/5E57854A/5F3E7971" Ref="C?"  Part="1" 
AR Path="/5E50DEC8/5EBAAD2D/5F3E7971" Ref="C?"  Part="1" 
AR Path="/5F3E7971" Ref="C1"  Part="1" 
F 0 "C1" H 3463 3054 50  0000 R CNN
F 1 "100p" H 3463 3145 50  0000 R CNN
F 2 "Capacitor_SMD:C_0402_1005Metric" H 3555 3100 50  0001 C CNN
F 3 "~" H 3555 3100 50  0001 C CNN
F 4 "Capacitor, 0402, 5%, 50V, NPO/COG" H 3555 3100 50  0001 C CNN "Description"
F 5 "KEMET" H 3555 3100 50  0001 C CNN "Mnf."
F 6 "CBR04C101J3GAC" H 3555 3100 50  0001 C CNN "Part Number"
	1    3555 3100
	0    -1   -1   0   
$EndComp
Wire Wire Line
	3455 3100 3400 3100
Connection ~ 3400 3100
Wire Wire Line
	3400 3100 3400 2940
Wire Wire Line
	3655 3100 3785 3100
Wire Wire Line
	3785 3100 3785 3180
$Comp
L power:GNDA #PWR?
U 1 1 5F3E98E4
P 3785 3180
AR Path="/5E50DEC8/5EBAAD2D/5F3E98E4" Ref="#PWR?"  Part="1" 
AR Path="/5E50DEC8/5E57854A/5F3E98E4" Ref="#PWR?"  Part="1" 
AR Path="/5F3E98E4" Ref="#PWR02"  Part="1" 
F 0 "#PWR02" H 3785 2930 50  0001 C CNN
F 1 "GNDA" H 3790 3007 50  0000 C CNN
F 2 "" H 3785 3180 50  0001 C CNN
F 3 "" H 3785 3180 50  0001 C CNN
	1    3785 3180
	1    0    0    -1  
$EndComp
$Comp
L power:+5V #PWR0101
U 1 1 5F3EC2BD
P 7395 2350
F 0 "#PWR0101" H 7395 2200 50  0001 C CNN
F 1 "+5V" H 7410 2523 50  0000 C CNN
F 2 "" H 7395 2350 50  0001 C CNN
F 3 "" H 7395 2350 50  0001 C CNN
	1    7395 2350
	1    0    0    -1  
$EndComp
$Comp
L power:GNDA #PWR?
U 1 1 5F3EC676
P 7395 2715
AR Path="/5E50DEC8/5EBAAD2D/5F3EC676" Ref="#PWR?"  Part="1" 
AR Path="/5E50DEC8/5E57854A/5F3EC676" Ref="#PWR?"  Part="1" 
AR Path="/5F3EC676" Ref="#PWR0102"  Part="1" 
F 0 "#PWR0102" H 7395 2465 50  0001 C CNN
F 1 "GNDA" H 7400 2542 50  0000 C CNN
F 2 "" H 7395 2715 50  0001 C CNN
F 3 "" H 7395 2715 50  0001 C CNN
	1    7395 2715
	1    0    0    -1  
$EndComp
Wire Wire Line
	7395 2350 7395 2450
Wire Wire Line
	7395 2450 7555 2450
Wire Wire Line
	7550 2610 7395 2610
Wire Wire Line
	7395 2610 7395 2715
$Comp
L power:PWR_FLAG #FLG0101
U 1 1 5F3F0269
P 7395 2450
F 0 "#FLG0101" H 7395 2525 50  0001 C CNN
F 1 "PWR_FLAG" V 7395 2577 50  0000 L CNN
F 2 "" H 7395 2450 50  0001 C CNN
F 3 "~" H 7395 2450 50  0001 C CNN
	1    7395 2450
	0    -1   -1   0   
$EndComp
Connection ~ 7395 2450
$Comp
L power:PWR_FLAG #FLG0102
U 1 1 5F3F0732
P 7395 2610
F 0 "#FLG0102" H 7395 2685 50  0001 C CNN
F 1 "PWR_FLAG" V 7395 2737 50  0000 L CNN
F 2 "" H 7395 2610 50  0001 C CNN
F 3 "~" H 7395 2610 50  0001 C CNN
	1    7395 2610
	0    -1   -1   0   
$EndComp
Connection ~ 7395 2610
$Comp
L Device:C_Small C?
U 1 1 5F3F5794
P 3555 2940
AR Path="/5E50DEC8/5E57854A/5F3F5794" Ref="C?"  Part="1" 
AR Path="/5E50DEC8/5EBAAD2D/5F3F5794" Ref="C?"  Part="1" 
AR Path="/5F3F5794" Ref="C7"  Part="1" 
F 0 "C7" H 3463 2894 50  0000 R CNN
F 1 "1u" H 3463 2985 50  0000 R CNN
F 2 "Capacitor_SMD:C_0402_1005Metric" H 3555 2940 50  0001 C CNN
F 3 "~" H 3555 2940 50  0001 C CNN
F 4 "Capacitor, 0402, 10%, 10V, X5R" H 3555 2940 50  0001 C CNN "Description"
F 5 "KEMET " H 3555 2940 50  0001 C CNN "Mnf."
F 6 "C0402C105K8PAC7411" H 3555 2940 50  0001 C CNN "Part Number"
	1    3555 2940
	0    -1   1    0   
$EndComp
Wire Wire Line
	3455 2940 3400 2940
Connection ~ 3400 2940
Wire Wire Line
	3400 2940 3400 2745
Wire Wire Line
	3655 2940 3785 2940
Wire Wire Line
	3785 2940 3785 3100
Connection ~ 3785 3100
$Comp
L Connector_Generic:Conn_01x01 J2
U 1 1 5F2BB8DF
P 7755 2450
F 0 "J2" H 7835 2492 50  0000 L CNN
F 1 "Conn_01x01" H 7835 2401 50  0000 L CNN
F 2 "lsf-kicad-lib:KEYSTONE-1502-2" H 7755 2450 50  0001 C CNN
F 3 "~" H 7755 2450 50  0001 C CNN
	1    7755 2450
	1    0    0    -1  
$EndComp
$Comp
L Connector_Generic:Conn_01x01 J1
U 1 1 5F2BD755
P 7750 2610
F 0 "J1" H 7830 2652 50  0000 L CNN
F 1 "Conn_01x01" H 7830 2561 50  0000 L CNN
F 2 "lsf-kicad-lib:KEYSTONE-1502-2" H 7750 2610 50  0001 C CNN
F 3 "~" H 7750 2610 50  0001 C CNN
	1    7750 2610
	1    0    0    -1  
$EndComp
$Comp
L Device:R_Small R?
U 1 1 5F2AE9A1
P 4635 2745
AR Path="/5E50DEC8/5EBAAD2D/5F2AE9A1" Ref="R?"  Part="1" 
AR Path="/5E50DEC8/5E57854A/5F2AE9A1" Ref="R?"  Part="1" 
AR Path="/5F2AE9A1" Ref="R2"  Part="1" 
F 0 "R2" H 4576 2699 50  0000 R CNN
F 1 "0" H 4576 2790 50  0000 R CNN
F 2 "Resistor_SMD:R_0402_1005Metric" H 4635 2745 50  0001 C CNN
F 3 "~" H 4635 2745 50  0001 C CNN
F 4 "Resistor, 0402, 5%, 1/16W" H 4635 2745 50  0001 C CNN "Description"
	1    4635 2745
	0    -1   1    0   
$EndComp
$Comp
L Device:D_TVS D2
U 1 1 5F2B5062
P 3400 4045
F 0 "D2" V 3354 4125 50  0000 L CNN
F 1 "D_TVS" V 3445 4125 50  0000 L CNN
F 2 "Diode_SMD:D_0603_1608Metric" H 3400 4045 50  0001 C CNN
F 3 "~" H 3400 4045 50  0001 C CNN
F 4 "Littelfuse" H 3400 4045 50  0001 C CNN "Mnf."
F 5 "PGB1010603MR" H 3400 4045 50  0001 C CNN "Part Number"
	1    3400 4045
	0    1    1    0   
$EndComp
Wire Wire Line
	3400 3895 3400 3830
Wire Wire Line
	3400 4195 3400 4365
$Comp
L power:GNDA #PWR?
U 1 1 5F2B921C
P 3400 4365
AR Path="/5E50DEC8/5EBAAD2D/5F2B921C" Ref="#PWR?"  Part="1" 
AR Path="/5E50DEC8/5E57854A/5F2B921C" Ref="#PWR?"  Part="1" 
AR Path="/5F2B921C" Ref="#PWR0103"  Part="1" 
F 0 "#PWR0103" H 3400 4115 50  0001 C CNN
F 1 "GNDA" H 3405 4192 50  0000 C CNN
F 2 "" H 3400 4365 50  0001 C CNN
F 3 "" H 3400 4365 50  0001 C CNN
	1    3400 4365
	1    0    0    -1  
$EndComp
Wire Wire Line
	4535 3830 4620 3830
Wire Wire Line
	3690 3830 3735 3830
Wire Wire Line
	4735 2745 4895 2745
$EndSCHEMATC
