EESchema Schematic File Version 4
EELAYER 30 0
EELAYER END
$Descr A4 11693 8268
encoding utf-8
Sheet 1 1
Title ""
Date ""
Rev ""
Comp ""
Comment1 ""
Comment2 ""
Comment3 ""
Comment4 ""
$EndDescr
$Comp
L Device:C_Small C?
U 1 1 5F0479FB
P 4705 3870
AR Path="/5E50DEC8/5E57854A/5F0479FB" Ref="C?"  Part="1" 
AR Path="/5E50DEC8/5EBAAD2D/5F0479FB" Ref="C?"  Part="1" 
AR Path="/5F0479FB" Ref="C1"  Part="1" 
F 0 "C1" H 4613 3824 50  0000 R CNN
F 1 "1.5p" H 4613 3915 50  0000 R CNN
F 2 "Capacitor_SMD:C_0805_2012Metric" H 4705 3870 50  0001 C CNN
F 3 "~" H 4705 3870 50  0001 C CNN
	1    4705 3870
	1    0    0    1   
$EndComp
$Comp
L Device:C_Small C?
U 1 1 5F047A07
P 5180 3870
AR Path="/5E50DEC8/5E57854A/5F047A07" Ref="C?"  Part="1" 
AR Path="/5E50DEC8/5EBAAD2D/5F047A07" Ref="C?"  Part="1" 
AR Path="/5F047A07" Ref="C2"  Part="1" 
F 0 "C2" H 5088 3824 50  0000 R CNN
F 1 "1.5p" H 5088 3915 50  0000 R CNN
F 2 "Capacitor_SMD:C_0805_2012Metric" H 5180 3870 50  0001 C CNN
F 3 "~" H 5180 3870 50  0001 C CNN
	1    5180 3870
	1    0    0    1   
$EndComp
$Comp
L Device:C_Small C?
U 1 1 5F047A13
P 6080 3870
AR Path="/5E50DEC8/5E57854A/5F047A13" Ref="C?"  Part="1" 
AR Path="/5E50DEC8/5EBAAD2D/5F047A13" Ref="C?"  Part="1" 
AR Path="/5F047A13" Ref="C4"  Part="1" 
F 0 "C4" H 5988 3824 50  0000 R CNN
F 1 "1.5p" H 5988 3915 50  0000 R CNN
F 2 "Capacitor_SMD:C_0805_2012Metric" H 6080 3870 50  0001 C CNN
F 3 "~" H 6080 3870 50  0001 C CNN
	1    6080 3870
	1    0    0    1   
$EndComp
$Comp
L Device:L_Small L?
U 1 1 5F047A25
P 4930 3545
AR Path="/5E50DEC8/5E57854A/5F047A25" Ref="L?"  Part="1" 
AR Path="/5E50DEC8/5EBAAD2D/5F047A25" Ref="L?"  Part="1" 
AR Path="/5F047A25" Ref="L2"  Part="1" 
F 0 "L2" H 4978 3591 50  0000 L CNN
F 1 "12n" H 4978 3500 50  0000 L CNN
F 2 "Inductor_SMD:L_0603_1608Metric" H 4930 3545 50  0001 C CNN
F 3 "~" H 4930 3545 50  0001 C CNN
	1    4930 3545
	0    -1   -1   0   
$EndComp
$Comp
L Device:L_Small L?
U 1 1 5F047A31
P 5830 3545
AR Path="/5E50DEC8/5E57854A/5F047A31" Ref="L?"  Part="1" 
AR Path="/5E50DEC8/5EBAAD2D/5F047A31" Ref="L?"  Part="1" 
AR Path="/5F047A31" Ref="L4"  Part="1" 
F 0 "L4" H 5878 3591 50  0000 L CNN
F 1 "12n" H 5878 3500 50  0000 L CNN
F 2 "Inductor_SMD:L_0603_1608Metric" H 5830 3545 50  0001 C CNN
F 3 "~" H 5830 3545 50  0001 C CNN
	1    5830 3545
	0    -1   -1   0   
$EndComp
Wire Wire Line
	6080 3770 6080 3545
Wire Wire Line
	5630 3770 5630 3545
Wire Wire Line
	4705 3770 4705 3545
Wire Wire Line
	4705 3970 4705 4170
Wire Wire Line
	6080 3970 6080 4170
Wire Wire Line
	5730 3545 5630 3545
Connection ~ 5630 3545
Wire Wire Line
	5030 3545 5180 3545
$Comp
L power:GNDA #PWR01
U 1 1 5EEDB1AD
P 5405 4320
F 0 "#PWR01" H 5405 4070 50  0001 C CNN
F 1 "GNDA" H 5410 4147 50  0000 C CNN
F 2 "" H 5405 4320 50  0001 C CNN
F 3 "" H 5405 4320 50  0001 C CNN
	1    5405 4320
	1    0    0    -1  
$EndComp
Wire Wire Line
	5930 3545 6080 3545
Wire Wire Line
	4705 4170 5180 4170
Wire Wire Line
	4305 3545 4430 3545
Connection ~ 4705 3545
Wire Wire Line
	4705 3545 4830 3545
$Comp
L Device:L_Small L?
U 1 1 5F513AB8
P 4530 3545
AR Path="/5E50DEC8/5E57854A/5F513AB8" Ref="L?"  Part="1" 
AR Path="/5E50DEC8/5EBAAD2D/5F513AB8" Ref="L?"  Part="1" 
AR Path="/5F513AB8" Ref="L1"  Part="1" 
F 0 "L1" H 4578 3591 50  0000 L CNN
F 1 "6.8n" H 4578 3500 50  0000 L CNN
F 2 "Inductor_SMD:L_0603_1608Metric" H 4530 3545 50  0001 C CNN
F 3 "~" H 4530 3545 50  0001 C CNN
	1    4530 3545
	0    -1   -1   0   
$EndComp
Wire Wire Line
	4630 3545 4705 3545
Wire Wire Line
	5180 3770 5180 3545
Connection ~ 5180 3545
Wire Wire Line
	5180 3545 5305 3545
Wire Wire Line
	5180 3970 5180 4170
Connection ~ 5180 4170
Wire Wire Line
	5180 4170 5405 4170
$Comp
L Device:L_Small L?
U 1 1 5F59A400
P 5405 3545
AR Path="/5E50DEC8/5E57854A/5F59A400" Ref="L?"  Part="1" 
AR Path="/5E50DEC8/5EBAAD2D/5F59A400" Ref="L?"  Part="1" 
AR Path="/5F59A400" Ref="L3"  Part="1" 
F 0 "L3" H 5453 3591 50  0000 L CNN
F 1 "12n" H 5453 3500 50  0000 L CNN
F 2 "Inductor_SMD:L_0603_1608Metric" H 5405 3545 50  0001 C CNN
F 3 "~" H 5405 3545 50  0001 C CNN
	1    5405 3545
	0    -1   -1   0   
$EndComp
Wire Wire Line
	5505 3545 5630 3545
$Comp
L Device:C_Small C?
U 1 1 5F59A7D4
P 5630 3870
AR Path="/5E50DEC8/5E57854A/5F59A7D4" Ref="C?"  Part="1" 
AR Path="/5E50DEC8/5EBAAD2D/5F59A7D4" Ref="C?"  Part="1" 
AR Path="/5F59A7D4" Ref="C3"  Part="1" 
F 0 "C3" H 5538 3824 50  0000 R CNN
F 1 "1.5p" H 5538 3915 50  0000 R CNN
F 2 "Capacitor_SMD:C_0805_2012Metric" H 5630 3870 50  0001 C CNN
F 3 "~" H 5630 3870 50  0001 C CNN
	1    5630 3870
	1    0    0    1   
$EndComp
Wire Wire Line
	5630 3970 5630 4170
Connection ~ 5630 4170
Connection ~ 6080 3545
Wire Wire Line
	6080 3545 6230 3545
Wire Wire Line
	5630 4170 6080 4170
$Comp
L Device:L_Small L?
U 1 1 5F766821
P 6330 3545
AR Path="/5E50DEC8/5E57854A/5F766821" Ref="L?"  Part="1" 
AR Path="/5E50DEC8/5EBAAD2D/5F766821" Ref="L?"  Part="1" 
AR Path="/5F766821" Ref="L5"  Part="1" 
F 0 "L5" H 6378 3591 50  0000 L CNN
F 1 "6.8n" H 6378 3500 50  0000 L CNN
F 2 "Inductor_SMD:L_0603_1608Metric" H 6330 3545 50  0001 C CNN
F 3 "~" H 6330 3545 50  0001 C CNN
	1    6330 3545
	0    -1   -1   0   
$EndComp
Wire Wire Line
	5405 4320 5405 4170
Connection ~ 5405 4170
Wire Wire Line
	5405 4170 5630 4170
$Comp
L Connector:Conn_Coaxial ANT-S2
U 1 1 5EBAB6BF
P 6775 3545
F 0 "ANT-S2" H 6875 3520 50  0000 L CNN
F 1 "RF 24" H 6875 3429 50  0000 L CNN
F 2 "Connector_Coaxial:SMA_Amphenol_132289_EdgeMount" H 6775 3545 50  0001 C CNN
F 3 " ~" H 6775 3545 50  0001 C CNN
	1    6775 3545
	1    0    0    -1  
$EndComp
Wire Wire Line
	6430 3545 6575 3545
$Comp
L Connector:Conn_Coaxial ANT-S1
U 1 1 5F2C512F
P 4105 3545
F 0 "ANT-S1" H 4205 3520 50  0000 L CNN
F 1 "RF 24" H 4205 3429 50  0000 L CNN
F 2 "Connector_Coaxial:SMA_Amphenol_132289_EdgeMount" H 4105 3545 50  0001 C CNN
F 3 " ~" H 4105 3545 50  0001 C CNN
	1    4105 3545
	-1   0    0    -1  
$EndComp
Wire Wire Line
	4105 3745 4105 4170
Wire Wire Line
	4105 4170 4705 4170
Connection ~ 4705 4170
Wire Wire Line
	6080 4170 6775 4170
Wire Wire Line
	6775 4170 6775 3745
Connection ~ 6080 4170
$Comp
L power:PWR_FLAG #FLG0101
U 1 1 5F2CB4F6
P 5405 4170
F 0 "#FLG0101" H 5405 4245 50  0001 C CNN
F 1 "PWR_FLAG" H 5405 4343 50  0000 C CNN
F 2 "" H 5405 4170 50  0001 C CNN
F 3 "~" H 5405 4170 50  0001 C CNN
	1    5405 4170
	1    0    0    -1  
$EndComp
$EndSCHEMATC
