(kicad_sch (version 20211123) (generator eeschema)

  (uuid 03ae2b2e-a327-4b31-aa70-8b212a3dfc6c)

  (paper "A4")

  (title_block
    (title "SatNOGS COMMS FlatSat")
    (rev "1.0.0")
  )

  (lib_symbols
    (symbol "Connector:Conn_01x02_Female" (pin_names (offset 1.016) hide) (in_bom yes) (on_board yes)
      (property "Reference" "J" (id 0) (at 0 2.54 0)
        (effects (font (size 1.27 1.27)))
      )
      (property "Value" "Conn_01x02_Female" (id 1) (at 0 -5.08 0)
        (effects (font (size 1.27 1.27)))
      )
      (property "Footprint" "" (id 2) (at 0 0 0)
        (effects (font (size 1.27 1.27)) hide)
      )
      (property "Datasheet" "~" (id 3) (at 0 0 0)
        (effects (font (size 1.27 1.27)) hide)
      )
      (property "ki_keywords" "connector" (id 4) (at 0 0 0)
        (effects (font (size 1.27 1.27)) hide)
      )
      (property "ki_description" "Generic connector, single row, 01x02, script generated (kicad-library-utils/schlib/autogen/connector/)" (id 5) (at 0 0 0)
        (effects (font (size 1.27 1.27)) hide)
      )
      (property "ki_fp_filters" "Connector*:*_1x??_*" (id 6) (at 0 0 0)
        (effects (font (size 1.27 1.27)) hide)
      )
      (symbol "Conn_01x02_Female_1_1"
        (arc (start 0 -2.032) (mid -0.508 -2.54) (end 0 -3.048)
          (stroke (width 0.1524) (type default) (color 0 0 0 0))
          (fill (type none))
        )
        (polyline
          (pts
            (xy -1.27 -2.54)
            (xy -0.508 -2.54)
          )
          (stroke (width 0.1524) (type default) (color 0 0 0 0))
          (fill (type none))
        )
        (polyline
          (pts
            (xy -1.27 0)
            (xy -0.508 0)
          )
          (stroke (width 0.1524) (type default) (color 0 0 0 0))
          (fill (type none))
        )
        (arc (start 0 0.508) (mid -0.508 0) (end 0 -0.508)
          (stroke (width 0.1524) (type default) (color 0 0 0 0))
          (fill (type none))
        )
        (pin passive line (at -5.08 0 0) (length 3.81)
          (name "Pin_1" (effects (font (size 1.27 1.27))))
          (number "1" (effects (font (size 1.27 1.27))))
        )
        (pin passive line (at -5.08 -2.54 0) (length 3.81)
          (name "Pin_2" (effects (font (size 1.27 1.27))))
          (number "2" (effects (font (size 1.27 1.27))))
        )
      )
    )
    (symbol "Device:D_Zener" (pin_numbers hide) (pin_names (offset 1.016) hide) (in_bom yes) (on_board yes)
      (property "Reference" "D" (id 0) (at 0 2.54 0)
        (effects (font (size 1.27 1.27)))
      )
      (property "Value" "D_Zener" (id 1) (at 0 -2.54 0)
        (effects (font (size 1.27 1.27)))
      )
      (property "Footprint" "" (id 2) (at 0 0 0)
        (effects (font (size 1.27 1.27)) hide)
      )
      (property "Datasheet" "~" (id 3) (at 0 0 0)
        (effects (font (size 1.27 1.27)) hide)
      )
      (property "ki_keywords" "diode" (id 4) (at 0 0 0)
        (effects (font (size 1.27 1.27)) hide)
      )
      (property "ki_description" "Zener diode" (id 5) (at 0 0 0)
        (effects (font (size 1.27 1.27)) hide)
      )
      (property "ki_fp_filters" "TO-???* *_Diode_* *SingleDiode* D_*" (id 6) (at 0 0 0)
        (effects (font (size 1.27 1.27)) hide)
      )
      (symbol "D_Zener_0_1"
        (polyline
          (pts
            (xy 1.27 0)
            (xy -1.27 0)
          )
          (stroke (width 0) (type default) (color 0 0 0 0))
          (fill (type none))
        )
        (polyline
          (pts
            (xy -1.27 -1.27)
            (xy -1.27 1.27)
            (xy -0.762 1.27)
          )
          (stroke (width 0.254) (type default) (color 0 0 0 0))
          (fill (type none))
        )
        (polyline
          (pts
            (xy 1.27 -1.27)
            (xy 1.27 1.27)
            (xy -1.27 0)
            (xy 1.27 -1.27)
          )
          (stroke (width 0.254) (type default) (color 0 0 0 0))
          (fill (type none))
        )
      )
      (symbol "D_Zener_1_1"
        (pin passive line (at -3.81 0 0) (length 2.54)
          (name "K" (effects (font (size 1.27 1.27))))
          (number "1" (effects (font (size 1.27 1.27))))
        )
        (pin passive line (at 3.81 0 180) (length 2.54)
          (name "A" (effects (font (size 1.27 1.27))))
          (number "2" (effects (font (size 1.27 1.27))))
        )
      )
    )
    (symbol "Device:LED" (pin_numbers hide) (pin_names (offset 1.016) hide) (in_bom yes) (on_board yes)
      (property "Reference" "D" (id 0) (at 0 2.54 0)
        (effects (font (size 1.27 1.27)))
      )
      (property "Value" "LED" (id 1) (at 0 -2.54 0)
        (effects (font (size 1.27 1.27)))
      )
      (property "Footprint" "" (id 2) (at 0 0 0)
        (effects (font (size 1.27 1.27)) hide)
      )
      (property "Datasheet" "~" (id 3) (at 0 0 0)
        (effects (font (size 1.27 1.27)) hide)
      )
      (property "ki_keywords" "LED diode" (id 4) (at 0 0 0)
        (effects (font (size 1.27 1.27)) hide)
      )
      (property "ki_description" "Light emitting diode" (id 5) (at 0 0 0)
        (effects (font (size 1.27 1.27)) hide)
      )
      (property "ki_fp_filters" "LED* LED_SMD:* LED_THT:*" (id 6) (at 0 0 0)
        (effects (font (size 1.27 1.27)) hide)
      )
      (symbol "LED_0_1"
        (polyline
          (pts
            (xy -1.27 -1.27)
            (xy -1.27 1.27)
          )
          (stroke (width 0.254) (type default) (color 0 0 0 0))
          (fill (type none))
        )
        (polyline
          (pts
            (xy -1.27 0)
            (xy 1.27 0)
          )
          (stroke (width 0) (type default) (color 0 0 0 0))
          (fill (type none))
        )
        (polyline
          (pts
            (xy 1.27 -1.27)
            (xy 1.27 1.27)
            (xy -1.27 0)
            (xy 1.27 -1.27)
          )
          (stroke (width 0.254) (type default) (color 0 0 0 0))
          (fill (type none))
        )
        (polyline
          (pts
            (xy -3.048 -0.762)
            (xy -4.572 -2.286)
            (xy -3.81 -2.286)
            (xy -4.572 -2.286)
            (xy -4.572 -1.524)
          )
          (stroke (width 0) (type default) (color 0 0 0 0))
          (fill (type none))
        )
        (polyline
          (pts
            (xy -1.778 -0.762)
            (xy -3.302 -2.286)
            (xy -2.54 -2.286)
            (xy -3.302 -2.286)
            (xy -3.302 -1.524)
          )
          (stroke (width 0) (type default) (color 0 0 0 0))
          (fill (type none))
        )
      )
      (symbol "LED_1_1"
        (pin passive line (at -3.81 0 0) (length 2.54)
          (name "K" (effects (font (size 1.27 1.27))))
          (number "1" (effects (font (size 1.27 1.27))))
        )
        (pin passive line (at 3.81 0 180) (length 2.54)
          (name "A" (effects (font (size 1.27 1.27))))
          (number "2" (effects (font (size 1.27 1.27))))
        )
      )
    )
    (symbol "Device:R" (pin_numbers hide) (pin_names (offset 0)) (in_bom yes) (on_board yes)
      (property "Reference" "R" (id 0) (at 2.032 0 90)
        (effects (font (size 1.27 1.27)))
      )
      (property "Value" "R" (id 1) (at 0 0 90)
        (effects (font (size 1.27 1.27)))
      )
      (property "Footprint" "" (id 2) (at -1.778 0 90)
        (effects (font (size 1.27 1.27)) hide)
      )
      (property "Datasheet" "~" (id 3) (at 0 0 0)
        (effects (font (size 1.27 1.27)) hide)
      )
      (property "ki_keywords" "R res resistor" (id 4) (at 0 0 0)
        (effects (font (size 1.27 1.27)) hide)
      )
      (property "ki_description" "Resistor" (id 5) (at 0 0 0)
        (effects (font (size 1.27 1.27)) hide)
      )
      (property "ki_fp_filters" "R_*" (id 6) (at 0 0 0)
        (effects (font (size 1.27 1.27)) hide)
      )
      (symbol "R_0_1"
        (rectangle (start -1.016 -2.54) (end 1.016 2.54)
          (stroke (width 0.254) (type default) (color 0 0 0 0))
          (fill (type none))
        )
      )
      (symbol "R_1_1"
        (pin passive line (at 0 3.81 270) (length 1.27)
          (name "~" (effects (font (size 1.27 1.27))))
          (number "1" (effects (font (size 1.27 1.27))))
        )
        (pin passive line (at 0 -3.81 90) (length 1.27)
          (name "~" (effects (font (size 1.27 1.27))))
          (number "2" (effects (font (size 1.27 1.27))))
        )
      )
    )
    (symbol "SatNOGS-COMMS-FlatSat:PXP8R3-20QX" (in_bom yes) (on_board yes)
      (property "Reference" "Q" (id 0) (at 0 -6.35 0)
        (effects (font (size 1.27 1.27)))
      )
      (property "Value" "PXP8R3-20QX" (id 1) (at 0 6.35 0)
        (effects (font (size 1.27 1.27)))
      )
      (property "Footprint" "SatNOGS-COMMS-FlatSat:MLPAK-33" (id 2) (at 0 0 0)
        (effects (font (size 1.27 1.27)) hide)
      )
      (property "Datasheet" "https://gr.mouser.com/datasheet/2/916/PXP8R3_20QX-2721702.pdf" (id 3) (at 0 0 0)
        (effects (font (size 1.27 1.27)) hide)
      )
      (property "ki_keywords" "MLPAK33 (SOT8002)" (id 4) (at 0 0 0)
        (effects (font (size 1.27 1.27)) hide)
      )
      (property "ki_description" "20V, P-channel Trench MOSFET" (id 5) (at 0 0 0)
        (effects (font (size 1.27 1.27)) hide)
      )
      (symbol "PXP8R3-20QX_0_1"
        (polyline
          (pts
            (xy -1.016 0)
            (xy -3.81 0)
          )
          (stroke (width 0) (type default) (color 0 0 0 0))
          (fill (type none))
        )
        (polyline
          (pts
            (xy -1.016 1.905)
            (xy -1.016 -1.905)
          )
          (stroke (width 0.254) (type default) (color 0 0 0 0))
          (fill (type none))
        )
        (polyline
          (pts
            (xy -0.508 -1.27)
            (xy -0.508 -2.286)
          )
          (stroke (width 0.254) (type default) (color 0 0 0 0))
          (fill (type none))
        )
        (polyline
          (pts
            (xy -0.508 0.508)
            (xy -0.508 -0.508)
          )
          (stroke (width 0.254) (type default) (color 0 0 0 0))
          (fill (type none))
        )
        (polyline
          (pts
            (xy -0.508 2.286)
            (xy -0.508 1.27)
          )
          (stroke (width 0.254) (type default) (color 0 0 0 0))
          (fill (type none))
        )
        (polyline
          (pts
            (xy 1.27 2.54)
            (xy 1.27 1.778)
          )
          (stroke (width 0) (type default) (color 0 0 0 0))
          (fill (type none))
        )
        (polyline
          (pts
            (xy 1.27 -2.54)
            (xy 1.27 0)
            (xy -0.508 0)
          )
          (stroke (width 0) (type default) (color 0 0 0 0))
          (fill (type none))
        )
        (polyline
          (pts
            (xy -0.508 1.778)
            (xy 2.032 1.778)
            (xy 2.032 -1.778)
            (xy -0.508 -1.778)
          )
          (stroke (width 0) (type default) (color 0 0 0 0))
          (fill (type none))
        )
        (polyline
          (pts
            (xy 1.016 0)
            (xy 0 0.381)
            (xy 0 -0.381)
            (xy 1.016 0)
          )
          (stroke (width 0) (type default) (color 0 0 0 0))
          (fill (type outline))
        )
        (polyline
          (pts
            (xy 1.524 -0.508)
            (xy 1.651 -0.381)
            (xy 2.413 -0.381)
            (xy 2.54 -0.254)
          )
          (stroke (width 0) (type default) (color 0 0 0 0))
          (fill (type none))
        )
        (polyline
          (pts
            (xy 2.032 -0.381)
            (xy 1.651 0.254)
            (xy 2.413 0.254)
            (xy 2.032 -0.381)
          )
          (stroke (width 0) (type default) (color 0 0 0 0))
          (fill (type none))
        )
        (circle (center 0.381 0) (radius 2.794)
          (stroke (width 0.254) (type default) (color 0 0 0 0))
          (fill (type none))
        )
        (circle (center 1.27 -1.778) (radius 0.254)
          (stroke (width 0) (type default) (color 0 0 0 0))
          (fill (type outline))
        )
        (circle (center 1.27 1.778) (radius 0.254)
          (stroke (width 0) (type default) (color 0 0 0 0))
          (fill (type outline))
        )
      )
      (symbol "PXP8R3-20QX_1_1"
        (pin passive line (at 1.27 -5.08 90) (length 2.54)
          (name "S" (effects (font (size 1.27 1.27))))
          (number "1" (effects (font (size 1.27 1.27))))
        )
        (pin passive line (at 1.27 -5.08 90) (length 2.54)
          (name "S" (effects (font (size 1.27 1.27))))
          (number "2" (effects (font (size 1.27 1.27))))
        )
        (pin passive line (at 1.27 -5.08 90) (length 2.54)
          (name "S" (effects (font (size 1.27 1.27))))
          (number "3" (effects (font (size 1.27 1.27))))
        )
        (pin input line (at -6.35 0 0) (length 2.54)
          (name "G" (effects (font (size 1.27 1.27))))
          (number "4" (effects (font (size 1.27 1.27))))
        )
        (pin passive line (at 1.27 5.08 270) (length 2.54)
          (name "D" (effects (font (size 1.27 1.27))))
          (number "5" (effects (font (size 1.27 1.27))))
        )
      )
    )
    (symbol "power:GND" (power) (pin_names (offset 0)) (in_bom yes) (on_board yes)
      (property "Reference" "#PWR" (id 0) (at 0 -6.35 0)
        (effects (font (size 1.27 1.27)) hide)
      )
      (property "Value" "GND" (id 1) (at 0 -3.81 0)
        (effects (font (size 1.27 1.27)))
      )
      (property "Footprint" "" (id 2) (at 0 0 0)
        (effects (font (size 1.27 1.27)) hide)
      )
      (property "Datasheet" "" (id 3) (at 0 0 0)
        (effects (font (size 1.27 1.27)) hide)
      )
      (property "ki_keywords" "power-flag" (id 4) (at 0 0 0)
        (effects (font (size 1.27 1.27)) hide)
      )
      (property "ki_description" "Power symbol creates a global label with name \"GND\" , ground" (id 5) (at 0 0 0)
        (effects (font (size 1.27 1.27)) hide)
      )
      (symbol "GND_0_1"
        (polyline
          (pts
            (xy 0 0)
            (xy 0 -1.27)
            (xy 1.27 -1.27)
            (xy 0 -2.54)
            (xy -1.27 -1.27)
            (xy 0 -1.27)
          )
          (stroke (width 0) (type default) (color 0 0 0 0))
          (fill (type none))
        )
      )
      (symbol "GND_1_1"
        (pin power_in line (at 0 0 270) (length 0) hide
          (name "GND" (effects (font (size 1.27 1.27))))
          (number "1" (effects (font (size 1.27 1.27))))
        )
      )
    )
  )

  (junction (at 168.91 113.03) (diameter 0) (color 0 0 0 0)
    (uuid 2d513144-692d-40b6-94c8-b3feb957551c)
  )
  (junction (at 186.69 88.9) (diameter 0) (color 0 0 0 0)
    (uuid 931c12c2-2c0c-4e02-8194-d05e3508308a)
  )
  (junction (at 168.91 88.9) (diameter 0) (color 0 0 0 0)
    (uuid e0ef447d-a05c-451a-bf20-db2555596f9c)
  )
  (junction (at 168.91 99.06) (diameter 0) (color 0 0 0 0)
    (uuid e7dde0d3-3ac1-418e-87d9-d9726ff40441)
  )

  (wire (pts (xy 186.69 88.9) (xy 186.69 93.98))
    (stroke (width 0) (type default) (color 0 0 0 0))
    (uuid 0634d09b-b4f3-4924-aa97-64df90948bc8)
  )
  (wire (pts (xy 161.29 99.06) (xy 168.91 99.06))
    (stroke (width 0) (type default) (color 0 0 0 0))
    (uuid 0b3d4208-4257-4a45-bf45-0ac0b66edc08)
  )
  (wire (pts (xy 99.06 95.25) (xy 119.38 95.25))
    (stroke (width 0) (type default) (color 0 0 0 0))
    (uuid 17c369cf-c27d-429e-9fd7-b60e8872935e)
  )
  (wire (pts (xy 186.69 101.6) (xy 186.69 104.14))
    (stroke (width 0) (type default) (color 0 0 0 0))
    (uuid 251b7c9d-8b23-48b7-b758-120a59d92687)
  )
  (wire (pts (xy 186.69 113.03) (xy 168.91 113.03))
    (stroke (width 0) (type default) (color 0 0 0 0))
    (uuid 2b8bd793-96c7-4a06-ba5a-465d1d89cabb)
  )
  (wire (pts (xy 168.91 111.76) (xy 168.91 113.03))
    (stroke (width 0) (type default) (color 0 0 0 0))
    (uuid 2c93e68b-23e0-4a8f-845c-7911d3abc09e)
  )
  (wire (pts (xy 166.37 88.9) (xy 168.91 88.9))
    (stroke (width 0) (type default) (color 0 0 0 0))
    (uuid 2fca283b-07ad-4fe4-8cca-34dc149535e1)
  )
  (wire (pts (xy 186.69 88.9) (xy 194.31 88.9))
    (stroke (width 0) (type default) (color 0 0 0 0))
    (uuid 32f1e503-a2a7-4abb-934d-bece6f4ecc46)
  )
  (wire (pts (xy 168.91 88.9) (xy 186.69 88.9))
    (stroke (width 0) (type default) (color 0 0 0 0))
    (uuid 45321be9-c296-4c51-9049-f8588043f5d7)
  )
  (wire (pts (xy 168.91 97.79) (xy 168.91 99.06))
    (stroke (width 0) (type default) (color 0 0 0 0))
    (uuid 4713d2a5-700c-4223-8e8c-bc814fca4fb1)
  )
  (wire (pts (xy 119.38 97.79) (xy 119.38 100.33))
    (stroke (width 0) (type default) (color 0 0 0 0))
    (uuid 4b3e8ab8-6573-4361-8b87-a68e53872f35)
  )
  (wire (pts (xy 168.91 99.06) (xy 168.91 104.14))
    (stroke (width 0) (type default) (color 0 0 0 0))
    (uuid 560a3dbf-a27b-4ecd-83a4-f7e3e3d70709)
  )
  (wire (pts (xy 168.91 88.9) (xy 168.91 90.17))
    (stroke (width 0) (type default) (color 0 0 0 0))
    (uuid 6335d0a4-3503-455f-8a16-33bc2cc40641)
  )
  (wire (pts (xy 151.13 88.9) (xy 156.21 88.9))
    (stroke (width 0) (type default) (color 0 0 0 0))
    (uuid 711e8266-1663-4d18-8cd6-839cb071c47e)
  )
  (wire (pts (xy 161.29 96.52) (xy 161.29 99.06))
    (stroke (width 0) (type default) (color 0 0 0 0))
    (uuid 845b23c2-7266-4032-845e-6495e4c790f9)
  )
  (wire (pts (xy 186.69 111.76) (xy 186.69 113.03))
    (stroke (width 0) (type default) (color 0 0 0 0))
    (uuid 8c7dc31b-3af0-4017-9f86-adf8a9749d4c)
  )
  (wire (pts (xy 168.91 113.03) (xy 168.91 114.3))
    (stroke (width 0) (type default) (color 0 0 0 0))
    (uuid c9c06e7a-c755-4710-bdb5-e2ed07d62edd)
  )
  (wire (pts (xy 99.06 97.79) (xy 119.38 97.79))
    (stroke (width 0) (type default) (color 0 0 0 0))
    (uuid e34e1373-69b0-4599-a75a-7458f19f5398)
  )

  (text "Input Voltage : 6V-14V" (at 91.44 86.36 0)
    (effects (font (size 1.27 1.27)) (justify left bottom))
    (uuid cf66b30f-abe4-4951-9d33-79c61128818c)
  )
  (text "Reverse Polarity Protection" (at 156.21 121.92 0)
    (effects (font (size 1.27 1.27)) (justify left bottom))
    (uuid df7ce507-817e-4cd7-9a7a-f7082c8c89d6)
  )

  (global_label "VIN_raw" (shape input) (at 119.38 95.25 0) (fields_autoplaced)
    (effects (font (size 1.27 1.27)) (justify left))
    (uuid 0db9632a-21af-4acb-9c05-e041f8c89b3a)
    (property "Intersheet References" "${INTERSHEET_REFS}" (id 0) (at 129.0502 95.1706 0)
      (effects (font (size 1.27 1.27)) (justify left) hide)
    )
  )
  (global_label "VIN" (shape input) (at 194.31 88.9 0) (fields_autoplaced)
    (effects (font (size 1.27 1.27)) (justify left))
    (uuid 6bfbab26-2ebd-4193-8b3e-10f31cfa49f6)
    (property "Intersheet References" "${INTERSHEET_REFS}" (id 0) (at 199.7469 88.8206 0)
      (effects (font (size 1.27 1.27)) (justify left) hide)
    )
  )
  (global_label "VIN_raw" (shape input) (at 151.13 88.9 180) (fields_autoplaced)
    (effects (font (size 1.27 1.27)) (justify right))
    (uuid fc21db43-1d7f-4b2d-9bea-fe80258ad93c)
    (property "Intersheet References" "${INTERSHEET_REFS}" (id 0) (at 141.4598 88.8206 0)
      (effects (font (size 1.27 1.27)) (justify right) hide)
    )
  )

  (symbol (lib_id "Device:LED") (at 186.69 97.79 90) (unit 1)
    (in_bom yes) (on_board yes) (fields_autoplaced)
    (uuid 05659ec9-1c27-476b-b70d-0c44532f5c56)
    (property "Reference" "D202" (id 0) (at 190.5 98.1074 90)
      (effects (font (size 1.27 1.27)) (justify right))
    )
    (property "Value" "LED" (id 1) (at 190.5 100.6474 90)
      (effects (font (size 1.27 1.27)) (justify right))
    )
    (property "Footprint" "LED_SMD:LED_0603_1608Metric" (id 2) (at 186.69 97.79 0)
      (effects (font (size 1.27 1.27)) hide)
    )
    (property "Datasheet" "~" (id 3) (at 186.69 97.79 0)
      (effects (font (size 1.27 1.27)) hide)
    )
    (property "Mfr." "Wurth Elektronik " (id 4) (at 186.69 97.79 0)
      (effects (font (size 1.27 1.27)) hide)
    )
    (property "Mfr. No." "150060RS55040 " (id 5) (at 186.69 97.79 0)
      (effects (font (size 1.27 1.27)) hide)
    )
    (pin "1" (uuid 3f89eb78-09a2-48b9-9d2e-0e8fd39a6671))
    (pin "2" (uuid 0be07138-f46f-4987-a75f-316371a0af32))
  )

  (symbol (lib_id "Connector:Conn_01x02_Female") (at 93.98 95.25 0) (mirror y) (unit 1)
    (in_bom yes) (on_board yes) (fields_autoplaced)
    (uuid 3c0d1729-78ee-4d33-bce7-cc51fe5e484f)
    (property "Reference" "J201" (id 0) (at 94.615 90.17 0))
    (property "Value" "Banana Jack" (id 1) (at 94.615 92.71 0))
    (property "Footprint" "Connector:Banana_Jack_2Pin" (id 2) (at 93.98 95.25 0)
      (effects (font (size 1.27 1.27)) hide)
    )
    (property "Datasheet" "~" (id 3) (at 93.98 95.25 0)
      (effects (font (size 1.27 1.27)) hide)
    )
    (pin "1" (uuid c9521a26-be15-4a1e-8acc-422906829663))
    (pin "2" (uuid 706e8940-8275-4fec-9841-867bd410d21e))
  )

  (symbol (lib_id "SatNOGS-COMMS-FlatSat:PXP8R3-20QX") (at 161.29 90.17 90) (unit 1)
    (in_bom yes) (on_board yes)
    (uuid ae1a75fb-9c93-46f8-9e6a-2f08465d305c)
    (property "Reference" "Q201" (id 0) (at 161.29 82.55 90)
      (effects (font (size 1.27 1.27)) (justify left))
    )
    (property "Value" "PXP8R3-20QX" (id 1) (at 167.64 85.09 90)
      (effects (font (size 1.27 1.27)) (justify left))
    )
    (property "Footprint" "SatNOGS-COMMS-FlatSat:MLPAK-33" (id 2) (at 161.29 90.17 0)
      (effects (font (size 1.27 1.27)) hide)
    )
    (property "Datasheet" "https://gr.mouser.com/datasheet/2/916/PXP8R3_20QX-2721702.pdf" (id 3) (at 161.29 90.17 0)
      (effects (font (size 1.27 1.27)) hide)
    )
    (property "Mfr." "Nexperia " (id 4) (at 161.29 90.17 0)
      (effects (font (size 1.27 1.27)) hide)
    )
    (property "Mfr. No." "PXP8R3-20QXJ " (id 5) (at 161.29 90.17 0)
      (effects (font (size 1.27 1.27)) hide)
    )
    (pin "1" (uuid 8b893dba-bff7-419d-9311-c8f47e597600))
    (pin "2" (uuid 5e854451-00e7-4a71-9466-7a3e12dee019))
    (pin "3" (uuid ec5decb7-8731-4851-a352-81e52a15d143))
    (pin "4" (uuid 52d82db2-f5ac-439b-b49c-c45ea77f9ab1))
    (pin "5" (uuid c94c1f21-0015-4b4a-938b-4af25d978a8b))
  )

  (symbol (lib_id "Device:D_Zener") (at 168.91 93.98 270) (unit 1)
    (in_bom yes) (on_board yes)
    (uuid cec5c91b-0f2e-497a-af3e-a5a152b16bf2)
    (property "Reference" "D201" (id 0) (at 171.45 92.7099 90)
      (effects (font (size 1.27 1.27)) (justify left))
    )
    (property "Value" "BZT52C10" (id 1) (at 170.18 96.52 90)
      (effects (font (size 1.27 1.27)) (justify left))
    )
    (property "Footprint" "Diode_SMD:D_SOD-123F" (id 2) (at 168.91 93.98 0)
      (effects (font (size 1.27 1.27)) hide)
    )
    (property "Datasheet" "~" (id 3) (at 168.91 93.98 0)
      (effects (font (size 1.27 1.27)) hide)
    )
    (property "Spice_Primitive" "" (id 4) (at 168.91 93.98 0)
      (effects (font (size 1.27 1.27)) hide)
    )
    (property "Spice_Model" "" (id 5) (at 168.91 93.98 0)
      (effects (font (size 1.27 1.27)) hide)
    )
    (property "Spice_Netlist_Enabled" "" (id 6) (at 168.91 93.98 0)
      (effects (font (size 1.27 1.27)) hide)
    )
    (property "Spice_Lib_File" "" (id 7) (at 168.91 93.98 0)
      (effects (font (size 1.27 1.27)) hide)
    )
    (property "Spice_Node_Sequence" "" (id 8) (at 168.91 93.98 0)
      (effects (font (size 1.27 1.27)) hide)
    )
    (property "Mfr." "Diotec Semiconductor " (id 9) (at 168.91 93.98 0)
      (effects (font (size 1.27 1.27)) hide)
    )
    (property "Mfr. No." "BZT52C10" (id 10) (at 168.91 93.98 0)
      (effects (font (size 1.27 1.27)) hide)
    )
    (pin "1" (uuid 659c7120-8885-4090-b510-a594ad335b4b))
    (pin "2" (uuid a66a3b2f-f268-4e38-987e-b27ec003ce16))
  )

  (symbol (lib_id "Device:R") (at 186.69 107.95 0) (unit 1)
    (in_bom yes) (on_board yes) (fields_autoplaced)
    (uuid d252701f-b751-4df1-91fe-49c493fda9ed)
    (property "Reference" "R202" (id 0) (at 189.23 106.6799 0)
      (effects (font (size 1.27 1.27)) (justify left))
    )
    (property "Value" "600" (id 1) (at 189.23 109.2199 0)
      (effects (font (size 1.27 1.27)) (justify left))
    )
    (property "Footprint" "Resistor_SMD:R_0603_1608Metric" (id 2) (at 184.912 107.95 90)
      (effects (font (size 1.27 1.27)) hide)
    )
    (property "Datasheet" "~" (id 3) (at 186.69 107.95 0)
      (effects (font (size 1.27 1.27)) hide)
    )
    (property "Mfr." "Panasonic " (id 4) (at 186.69 107.95 0)
      (effects (font (size 1.27 1.27)) hide)
    )
    (property "Mfr. No." "ERJ-3EKF5900V" (id 5) (at 186.69 107.95 0)
      (effects (font (size 1.27 1.27)) hide)
    )
    (pin "1" (uuid 3f5d0cc8-4035-49b8-9bde-b7661434d618))
    (pin "2" (uuid b76c4010-9c0b-490f-8699-579e51351251))
  )

  (symbol (lib_id "Device:R") (at 168.91 107.95 0) (unit 1)
    (in_bom yes) (on_board yes) (fields_autoplaced)
    (uuid dfbe250b-8861-48d0-929d-32e7b587e767)
    (property "Reference" "R201" (id 0) (at 171.45 106.6799 0)
      (effects (font (size 1.27 1.27)) (justify left))
    )
    (property "Value" "10k" (id 1) (at 171.45 109.2199 0)
      (effects (font (size 1.27 1.27)) (justify left))
    )
    (property "Footprint" "Resistor_SMD:R_0603_1608Metric" (id 2) (at 167.132 107.95 90)
      (effects (font (size 1.27 1.27)) hide)
    )
    (property "Datasheet" "~" (id 3) (at 168.91 107.95 0)
      (effects (font (size 1.27 1.27)) hide)
    )
    (property "Mfr." "YAGEO " (id 4) (at 168.91 107.95 0)
      (effects (font (size 1.27 1.27)) hide)
    )
    (property "Mfr. No." "RC0603JR-0710KP" (id 5) (at 168.91 107.95 0)
      (effects (font (size 1.27 1.27)) hide)
    )
    (pin "1" (uuid 53c43bc3-2170-4bcf-a95e-d30d656806f0))
    (pin "2" (uuid 2ec9d7d0-14bc-45c3-a47e-412fc8c3e54b))
  )

  (symbol (lib_id "power:GND") (at 119.38 100.33 0) (mirror y) (unit 1)
    (in_bom yes) (on_board yes)
    (uuid e0f5ae2f-e387-43fe-ac3d-a4e01e46f514)
    (property "Reference" "#PWR0201" (id 0) (at 119.38 106.68 0)
      (effects (font (size 1.27 1.27)) hide)
    )
    (property "Value" "GND" (id 1) (at 119.38 104.14 0))
    (property "Footprint" "" (id 2) (at 119.38 100.33 0)
      (effects (font (size 1.27 1.27)) hide)
    )
    (property "Datasheet" "" (id 3) (at 119.38 100.33 0)
      (effects (font (size 1.27 1.27)) hide)
    )
    (pin "1" (uuid 1dce7b9d-4f2a-4eaf-92bf-fbc13310290c))
  )

  (symbol (lib_id "power:GND") (at 168.91 114.3 0) (unit 1)
    (in_bom yes) (on_board yes)
    (uuid f8cfd3aa-e4ff-4f9d-9bf9-0adf19203b52)
    (property "Reference" "#PWR0202" (id 0) (at 168.91 120.65 0)
      (effects (font (size 1.27 1.27)) hide)
    )
    (property "Value" "GND" (id 1) (at 168.91 118.11 0))
    (property "Footprint" "" (id 2) (at 168.91 114.3 0)
      (effects (font (size 1.27 1.27)) hide)
    )
    (property "Datasheet" "" (id 3) (at 168.91 114.3 0)
      (effects (font (size 1.27 1.27)) hide)
    )
    (pin "1" (uuid 934f6b2e-d892-4606-8ba6-f8b20bec47c8))
  )
)
